{
  "data":[
    {
      "name": "管理處代碼",
      "value": ""
    },
    {
      "name": "管理處名稱",
      "value": ""
    },
    {
      "name": "管理分處代碼",
      "value": ""
    },
    {
      "name": "管理分處名稱",
      "value": ""
    },
    {
      "name": "工作站代碼",
      "value": ""
    },
    {
      "name": "工作站名稱",
      "value": ""
    },
    {
      "name": "小組代碼",
      "value": ""
    },
    {
      "name": "小組名稱",
      "value": ""
    },
    {
      "name": "面積(m²)",
      "value": ""
    },
    {
      "name": "資料日期",
      "value": ""
    }
  ]
}