<svg width="134" height="50" viewBox="0 0 134 50" fill="none" xmlns="http://www.w3.org/2000/svg">
<path d="M40.2791 29.8546C40.292 29.9038 40.3427 29.9829 40.4289 30.0849C40.5916 30.5989 40.6426 31.0995 40.5787 31.5903C40.5405 32.0646 40.2979 32.4963 39.8515 32.8816C39.3157 33.346 39.1594 33.7314 39.3825 34.0411C39.6187 34.4001 40.0238 34.4331 40.5977 34.1367C41.0219 33.9061 41.9693 33.5833 43.4396 33.1716C44.1606 32.9674 44.5051 32.7469 44.4666 32.5163C44.4537 32.2462 44.1477 32.144 43.5512 32.2068C43.1652 32.2593 42.7604 32.299 42.336 32.3253C41.9247 32.3616 41.7684 32.1506 41.8672 31.6862C41.8543 31.3403 41.9118 30.8495 42.0363 30.2205C42.1098 30.013 42.1065 29.8418 42.0173 29.7001C43.14 29.621 44.0935 29.6144 44.8782 29.6804C44.7539 29.7297 44.6358 29.8352 44.5208 29.9867C44.2113 30.3755 43.749 30.7211 43.1397 31.0308C42.6771 31.2351 42.5722 31.4295 42.8207 31.6106C43.1588 31.8148 43.8124 31.7392 44.7822 31.3768C44.7951 31.3898 44.8459 31.4095 44.932 31.4362C45.6432 31.6303 46.6512 32.4209 47.9621 33.811C48.5714 34.325 49.1454 34.4534 49.6812 34.1964C50.8519 33.6824 51.5502 33.2443 51.7735 32.8822C52.0352 32.4603 51.8214 32.2662 51.1389 32.3056C50.2395 32.4207 49.0817 32.2199 47.6622 31.7059C46.9892 31.4359 46.3608 30.9975 45.7742 30.3949C45.7742 30.0852 45.7105 29.858 45.586 29.7164C46.2334 29.7688 46.7471 29.8711 47.1202 30.0258C47.5444 30.1938 47.8667 30.1805 48.09 29.9864C48.329 29.7821 48.492 29.5318 48.5779 29.2354C48.6259 29.0312 48.5779 28.8634 48.4281 28.7348C48.1666 28.6064 47.1651 28.5601 45.4202 28.5998C44.6355 28.5998 43.7807 28.6064 42.8592 28.6195C41.4399 28.6195 40.4541 28.6227 39.9054 28.636C39.9183 28.5207 39.9309 28.4187 39.9435 28.3297C41.1016 28.0959 43.3947 28.0531 46.8203 28.1947C47.2063 28.1947 47.4263 28.1023 47.4743 27.9244C47.525 27.7564 47.506 27.6083 47.4201 27.4797C47.2703 27.3511 46.1602 27.2786 44.0932 27.2656C41.6119 27.2294 40.2496 27.2357 39.9977 27.2853C39.9977 27.2459 39.9977 27.2227 39.9977 27.2094C40.1124 27.0941 40.6482 26.9391 41.6052 26.745C42.7789 26.5902 44.2461 26.623 46.0166 26.8406C46.852 26.9724 47.4613 26.6989 47.8474 26.0302C47.8474 25.994 47.8538 25.9612 47.8664 25.9349C47.9175 25.7306 47.6622 25.6188 47.1009 25.6055C43.1745 25.6055 41.1588 25.5988 41.0469 25.589C40.8205 25.5756 40.5972 25.5692 40.3739 25.5692C41.0214 25.4145 41.9303 25.3421 43.101 25.3551C44.5715 25.3551 45.455 25.3815 45.7548 25.4342C46.4023 25.5495 46.9062 25.4476 47.27 25.1248C47.5795 24.8809 47.7293 24.3605 47.7166 23.56C47.7295 22.9704 47.7868 22.4104 47.8858 21.8834C47.9624 21.33 47.8283 20.905 47.4936 20.6086C47.0821 20.2992 46.2399 20.1769 44.9705 20.243C44.9323 19.9958 44.8524 19.7852 44.7281 19.6038C44.4922 19.3205 44.2052 19.3008 43.8668 19.5479C43.7075 19.6763 43.6054 19.9069 43.5703 20.243C43.1461 20.243 42.6835 20.2528 42.1861 20.2792C42.148 19.9958 42.049 19.7585 41.8863 19.5641C41.6503 19.2941 41.3695 19.3008 41.0474 19.5838C40.8847 19.7125 40.7955 19.9593 40.7857 20.3186C39.4397 20.3186 38.6649 20.4075 38.4668 20.5886C38.1924 20.8325 38.1001 21.3297 38.1863 22.0743C38.1863 22.384 38.2244 23.1251 38.2979 24.2948C38.285 24.9237 38.4606 25.3554 38.8208 25.5892C38.9451 25.6651 39.1524 25.6982 39.4397 25.6848C39.0537 25.8132 38.7731 26.0241 38.5975 26.3205C38.4859 26.4752 38.5049 26.8936 38.655 27.5756C38.655 29.6213 37.277 31.2058 34.5247 32.3259C34.1737 32.4774 33.995 32.6322 33.9824 32.7872C33.9953 33.1099 34.3875 33.4361 35.1596 33.7722C35.5708 33.9269 35.9122 33.8942 36.1866 33.6766C37.2456 32.8135 37.9983 32.1382 38.448 31.6474C38.8725 31.1467 39.2262 30.5934 39.5135 29.9873C39.7146 29.938 39.9696 29.8917 40.2791 29.8557V29.8546ZM43.5134 23.3291C43.4752 23.6124 43.4623 23.8691 43.4752 24.1001C43.0892 24.1001 42.6524 24.1198 42.1676 24.1594C42.2184 23.8891 42.2313 23.5664 42.2058 23.1944C42.8404 23.155 43.2774 23.1416 43.5134 23.155C43.5134 23.2077 43.5134 23.2636 43.5134 23.3297V23.3291ZM44.8209 23.1544C45.4684 23.1411 45.963 23.1677 46.2977 23.2335C46.2848 23.5794 46.234 23.8066 46.1479 23.9088C46.1353 23.9088 45.6822 23.9648 44.7828 24.0835C44.8209 23.8132 44.8338 23.5038 44.8209 23.1547V23.1544ZM43.5706 21.784C43.5577 21.9123 43.5515 22.0474 43.5515 22.189C43.3633 22.176 43.175 22.176 42.9902 22.189C42.6905 22.189 42.4162 22.189 42.1673 22.189C42.1673 21.919 42.1673 21.6423 42.1673 21.359C42.4033 21.3097 42.8721 21.3031 43.5706 21.3393C43.5706 21.4711 43.5706 21.616 43.5706 21.784ZM44.9326 21.359C45.6056 21.3723 46.0107 21.4381 46.1479 21.5534C46.1989 21.6061 46.2405 21.7773 46.2786 22.0737C45.9661 22.087 45.4939 22.1131 44.8594 22.1528C44.8723 21.8695 44.8975 21.6061 44.9329 21.359H44.9326ZM40.8786 23.3091C40.8659 23.6713 40.8786 23.9645 40.9136 24.1986C40.8275 24.1852 40.7285 24.1852 40.6171 24.1986C40.2056 24.2116 39.9312 24.1655 39.7943 24.0635C39.7082 24.0108 39.638 23.7672 39.5901 23.3291C39.8518 23.2764 40.2791 23.2468 40.8786 23.2335C40.8786 23.2468 40.8786 23.2697 40.8786 23.3094V23.3091ZM40.885 21.784C40.885 21.9123 40.885 22.0474 40.885 22.189C40.3237 22.176 39.8832 22.1528 39.5581 22.1131C39.5581 21.8431 39.5836 21.6884 39.6316 21.6487C39.7463 21.5334 40.1612 21.4575 40.8853 21.4181C40.8853 21.507 40.8853 21.629 40.8853 21.7837L40.885 21.784ZM56.4054 23.6779C56.3925 23.8822 56.4119 24.8475 56.4595 26.5702C56.5361 28.7081 56.5967 29.9368 56.6478 30.2596C56.6986 30.5395 56.7146 30.7799 56.7019 30.9712C56.7019 31.1259 56.785 31.3072 56.9477 31.5112C57.1455 31.7583 57.3337 31.9064 57.506 31.9559C57.7323 32.0087 58.0132 31.9493 58.3481 31.7812C58.7978 31.577 60.4277 31.4683 63.2443 31.4553C65.6749 31.4553 67.4577 31.5773 68.5899 31.8209C69.2374 31.9099 69.6554 31.854 69.8434 31.6462C70.0285 31.3762 70.1337 30.9413 70.1593 30.3352C70.2358 26.4746 70.3346 24.3336 70.4589 23.9085C70.6087 23.3155 70.6471 22.8412 70.5705 22.479C70.4463 21.9257 70.21 21.5731 69.8594 21.4184C69.5499 21.29 69.1387 21.257 68.6281 21.3228C68.2547 21.3723 67.2885 21.4053 65.7321 21.4184C62.7402 21.3393 60.5169 21.3526 59.0593 21.4578C58.7212 21.5073 58.4312 21.4711 58.179 21.3393C57.8824 21.2109 57.6431 21.1483 57.4709 21.1483C57.0849 21.2008 56.7471 21.3856 56.4598 21.7084C56.3002 22.0279 56.2621 22.3837 56.3482 22.7691C56.3992 23.0524 56.4183 23.3552 56.4057 23.6779H56.4054ZM62.5901 29.8905C62.552 30.0058 62.536 30.1179 62.536 30.2199C60.1054 30.2332 58.6797 30.1243 58.2555 29.8905C58.0325 29.7358 57.8953 28.8168 57.8443 27.1303C57.8824 27.1303 57.9304 27.1303 57.9941 27.1303C58.6671 27.015 60.2364 26.9524 62.702 26.9391C62.702 28.4807 62.667 29.4658 62.5904 29.8905H62.5901ZM64.3665 30.0522C64.3157 29.6897 64.2773 28.649 64.2551 26.9226C66.5356 26.9095 67.9932 26.9753 68.6281 27.117C68.7142 27.117 68.8003 27.117 68.8898 27.117C68.8769 27.8253 68.845 28.5334 68.7973 29.2418C68.7591 29.6405 68.6696 29.8775 68.5355 29.9534C68.4079 30.0058 68.223 30.0652 67.9742 30.1278C67.7349 30.1672 66.5356 30.1938 64.3667 30.2037C64.3667 30.1544 64.3667 30.1017 64.3667 30.0522H64.3665ZM62.5548 22.9994C62.6025 23.4012 62.6473 24.3072 62.6824 25.7237C60.3155 25.7335 58.7336 25.6776 57.9363 25.549C57.8883 25.5356 57.8502 25.5356 57.8246 25.549C57.8117 25.0483 57.8182 24.5378 57.8437 24.0239C57.8437 23.8952 57.9489 23.7011 58.1627 23.4441C58.322 23.2399 58.5293 23.0982 58.7782 23.0191C59.4512 22.8511 60.6951 22.7491 62.5163 22.7129C62.5163 22.7885 62.5292 22.8841 62.5545 22.9994H62.5548ZM64.3665 22.9501C64.3794 22.8612 64.3855 22.7691 64.3855 22.6798C66.9278 22.6798 68.3215 22.8412 68.5703 23.1608C68.7967 23.4705 68.9083 24.2675 68.9083 25.5556C68.8573 25.5556 68.8127 25.5556 68.7776 25.5556C68.2544 25.6315 66.7392 25.6906 64.2357 25.7303C64.2228 24.3666 64.2674 23.4377 64.3665 22.9501ZM82.8277 21.4184C82.9904 24.1325 82.984 27.5817 82.8086 31.765C82.7579 32.549 82.8406 33.076 83.051 33.346C83.4241 33.7447 83.756 33.7841 84.043 33.4613C84.3524 33.1024 84.4641 32.4073 84.378 31.3762C84.2918 30.1408 84.3334 26.9127 84.5087 21.6884C84.5597 20.98 84.4416 20.4466 84.1547 20.0874C83.8803 19.7646 83.5358 19.758 83.1276 20.0677C82.8628 20.2719 82.764 20.723 82.8277 21.4181V21.4184ZM81.6509 26.2243C81.8739 26.0169 81.9252 25.7729 81.7976 25.4899C81.6733 25.2462 81.3956 25.0023 80.9588 24.7586C80.0846 24.5118 79.4119 24.2942 78.9398 24.0998C78.5156 23.8558 77.9127 23.9219 77.1281 24.2942C76.742 24.4883 76.6719 24.7719 76.9207 25.1439C77.1825 25.5293 77.7691 25.73 78.6783 25.7402C79.5011 25.7796 79.9923 25.9082 80.155 26.1287C80.1677 27.0544 79.737 27.8581 78.8663 28.5401C78.292 28.9387 77.4695 29.3571 76.3975 29.7952C75.7882 30.0388 75.4757 30.4178 75.4631 30.9349C75.4757 31.3336 75.6193 31.5903 75.8937 31.7059C76.3914 31.9136 77.2206 31.6862 78.3784 31.0306C79.2012 30.4772 79.8296 29.9368 80.2667 29.4098C80.678 28.906 81.0769 28 81.4626 26.689C81.5137 26.4552 81.5743 26.3002 81.6509 26.2246V26.2243ZM86.3779 24.7948C86.365 24.7586 86.3397 24.7322 86.3044 24.7189C86.0045 24.5245 85.743 24.5048 85.5197 24.6595C85.3186 24.8276 85.2614 25.1932 85.3506 25.7599C85.4749 26.6227 85.7618 27.4133 86.2087 28.1348C86.5948 28.764 87.3634 29.5776 88.5083 30.5658C89.3437 31.1589 90.0296 31.353 90.5655 31.1456C91.6469 30.7075 92.2784 30.3352 92.4507 30.0255C92.6386 29.7422 92.4633 29.5579 91.9275 29.4655C91.0951 29.3502 89.8863 28.9451 88.3041 28.2501C87.6535 27.9041 87.242 27.5188 87.0697 27.0938C86.8686 26.5404 86.7569 26.076 86.7317 25.7037C86.7188 25.6246 86.7095 25.562 86.6966 25.5093C88.54 25.0086 89.5482 24.6792 89.7236 24.5242C89.9853 24.2939 90.0902 24.0369 90.0395 23.7533C89.966 23.3152 89.7685 23.0385 89.443 22.9232C88.9198 22.7685 87.8993 23.3943 86.3779 24.7942V24.7948ZM100.82 25.8193C100.246 26.9391 99.0469 27.967 97.2131 28.9057C96.6901 29.1757 96.4029 29.4855 96.3549 29.8346C96.3041 30.1935 96.4539 30.5033 96.8015 30.76C97.1522 30.9906 97.7295 30.8753 98.5397 30.4108C99.3244 29.8705 100.074 29.0801 100.782 28.0392C100.709 31.2936 100.715 33.056 100.801 33.326C100.925 33.7247 101.158 33.9388 101.493 33.9652C101.806 33.975 102.067 33.7908 102.278 33.4051C102.466 33.056 102.52 32.2854 102.447 31.0894C102.396 29.2218 102.367 27.3111 102.354 25.3543C102.766 25.3412 103.165 25.3346 103.55 25.3346C104.16 25.374 104.577 25.2326 104.801 24.913C104.989 24.6297 104.995 24.3463 104.82 24.0633C104.657 23.8161 104.239 23.7208 103.566 23.7732C103.12 23.7866 102.715 23.8126 102.354 23.8492C102.316 22.9629 102.335 22.2481 102.409 21.7081C102.46 21.7081 102.527 21.7148 102.616 21.7278C103.101 21.8167 103.461 21.7904 103.7 21.6487C103.898 21.5334 103.965 21.3523 103.905 21.1086C103.854 20.9044 103.643 20.7364 103.27 20.6077C102.734 20.3774 102.246 20.2091 101.812 20.1039C101.426 20.0149 101.127 19.9193 100.913 19.8173C100.54 19.6493 100.036 19.8307 99.401 20.3577C98.728 20.8977 98.492 21.2964 98.6898 21.5534C98.8525 21.7576 99.1715 21.8167 99.6436 21.7281C100.017 21.6754 100.384 21.6357 100.747 21.6128C100.859 22.4231 100.897 23.1741 100.859 23.8691C99.9626 23.8691 99.1013 23.8132 98.2785 23.6944C97.7809 23.6452 97.3026 23.8952 96.84 24.4489C96.5272 24.8739 96.4666 25.2526 96.6517 25.5887C96.9642 25.9743 97.4268 26.0235 98.0359 25.7402C98.5588 25.5096 99.4935 25.3943 100.84 25.3943C100.827 25.5229 100.82 25.6646 100.82 25.8193ZM103.924 26.7053C103.388 26.5407 103.037 26.5274 102.878 26.669C102.728 26.8238 102.715 26.9689 102.84 27.1103C103.152 27.4725 103.43 27.947 103.682 28.5398C103.768 28.8231 103.985 28.9779 104.336 29.0042C104.683 29.0404 104.945 28.8889 105.121 28.5398C105.306 28.1411 105.299 27.792 105.101 27.4991C104.9 27.1761 104.508 26.9127 103.925 26.705L103.924 26.7053ZM110.912 26.9194C110.912 29.1198 110.9 30.3091 110.877 30.4902C110.727 31.0833 110.395 31.5509 109.885 31.9C109.387 32.246 108.925 32.3876 108.501 32.325C107.592 32.246 107.094 32.2526 107.008 32.3413C106.894 32.5093 106.944 32.7234 107.155 32.9804C107.544 33.4185 108.128 33.7247 108.913 33.9058C109.525 34.0211 110.211 33.9058 110.97 33.5599C111.566 33.2501 112.003 32.7924 112.278 32.1863C112.475 31.6723 112.507 30.6116 112.37 29.0042C112.259 25.2587 112.316 22.8015 112.539 21.6287C112.737 21.0753 112.664 20.5747 112.316 20.1233C112.042 19.7246 111.71 19.5566 111.324 19.6224C110.976 19.6983 110.769 20.0474 110.709 20.6633C110.67 21.2167 110.683 21.9645 110.744 22.9032C110.782 23.6773 110.814 24.448 110.839 25.219C110.578 25.1828 109.898 25.3212 108.801 25.644C108.39 25.7329 108.141 25.476 108.054 24.873C108.016 24.28 108.016 23.8419 108.054 23.5586C108.141 22.9032 108.022 22.4286 107.697 22.1322C107.423 21.8886 107.133 21.7765 106.82 21.8028C106.597 21.8422 106.408 21.9906 106.259 22.2476C106.134 22.4915 106.185 22.9359 106.408 23.5783C106.67 24.158 106.814 24.6027 106.839 24.9124C106.852 25.232 106.788 25.5548 106.651 25.8743C106.526 26.1577 106.329 26.4179 106.054 26.6485C105.78 26.8788 105.605 27.1161 105.531 27.3632C105.455 27.6332 105.506 27.8705 105.681 28.0748C105.841 28.2822 106.054 28.4239 106.316 28.4995C106.539 28.5389 106.877 28.3381 107.324 27.9033C108.185 26.9744 109.368 26.6482 110.877 26.9182C110.877 26.9182 110.886 26.9182 110.912 26.9182L110.912 26.9194ZM127.817 34.0017C128.465 34.117 128.968 34.015 129.332 33.6954C129.642 33.4483 129.791 32.928 129.779 32.1306C129.779 31.2676 129.836 30.4505 129.948 29.6799C130.025 29.1265 129.89 28.7015 129.556 28.4051C129.144 28.0956 128.43 27.9803 127.406 28.0591C127.406 27.9667 127.425 27.8647 127.463 27.7494C127.498 27.555 127.476 27.3574 127.387 27.15C128.557 27.15 129.887 27.4861 131.367 28.1548C132.053 28.4248 132.77 28.0823 133.517 27.1303C133.629 26.9657 133.753 26.7844 133.89 26.5902C134.117 26.1916 133.992 25.994 133.517 25.994C132.994 26.0302 132.142 26.0235 130.956 25.9743C130.471 25.961 129.792 25.9479 128.921 25.9349C128.921 25.9216 128.927 25.9152 128.94 25.9152C129.202 25.7471 129.438 25.6252 129.648 25.5495C130.149 25.3059 130.286 24.8545 130.06 24.1991C129.712 23.3755 129.288 23.2964 128.79 23.9653C128.417 24.6737 127.961 25.3192 127.425 25.8958C126.64 25.8596 126.111 25.8462 125.836 25.8596C125.836 25.7048 125.836 25.4841 125.836 25.2007C126.149 25.1877 126.497 25.1877 126.883 25.2007C127.38 25.2007 127.673 25.0857 127.763 24.8548C127.836 24.6111 127.804 24.4167 127.667 24.2751C127.482 24.107 126.915 24.0181 125.967 24.0047C126.229 23.6588 126.159 23.3361 125.76 23.0397C127.195 22.9869 128.309 22.9936 129.106 23.0594C129.894 23.0988 130.452 22.8519 130.79 22.3249C131.013 21.8109 131.169 21.3433 131.256 20.9183C131.345 20.5295 131.249 20.2036 130.975 19.9332C130.752 19.6994 130.085 19.5609 128.975 19.5085C128.816 19.4558 127.384 19.4491 124.685 19.4888C123.323 19.4888 121.92 19.5215 120.475 19.5841C119.99 19.5974 119.662 19.7258 119.486 19.9729C119.263 20.3189 119.225 20.6416 119.375 20.9348C119.524 21.3596 119.617 21.8506 119.655 22.404C119.729 22.8027 119.847 23.0924 120.009 23.2703C120.134 23.3888 120.331 23.412 120.606 23.3494C121.129 23.2604 122.303 23.1683 124.121 23.0791C124.172 23.0657 124.239 23.0657 124.325 23.0791C124.178 23.2471 124.159 23.5108 124.271 23.8697C124.271 23.9091 124.271 23.952 124.271 24.0047C122.475 23.9288 121.448 24.0244 121.187 24.2948C120.951 24.5251 120.893 24.7757 121.018 25.0457C121.18 25.3685 121.598 25.4641 122.271 25.3354C123.254 25.1445 123.958 25.0918 124.383 25.1839C124.383 25.4638 124.383 25.6979 124.383 25.8758C123.25 25.8659 122.07 25.8824 120.852 25.9352C120.351 25.9482 120.022 25.9549 119.86 25.9549C119.174 26.0073 118.571 26.2249 118.048 26.6102C117.624 27.0089 117.512 27.3942 117.71 27.7697C117.972 28.1287 118.453 28.2112 119.148 28.02C120.769 27.5061 122.265 27.2097 123.636 27.1306C121.579 28.8304 119.63 29.9041 117.787 30.3555C117.286 30.3555 116.919 30.5235 116.683 30.8561C116.533 31.0899 116.565 31.3635 116.775 31.6862C117.002 32.0092 117.264 32.2002 117.56 32.2659C118.31 32.3943 119.755 31.6401 121.898 30.0061C122.121 29.8152 122.338 29.6405 122.552 29.4857C122.565 29.6538 122.571 29.8349 122.571 30.0258C122.645 32.3416 122.743 33.5966 122.868 33.7911C122.944 33.9194 123.056 34.0414 123.206 34.1567C123.429 34.2853 123.891 34.2853 124.587 34.1567C125.534 33.9261 126.609 33.8733 127.818 34.002L127.817 34.0017ZM124.009 31.5903C124.771 31.4356 125.904 31.4026 127.412 31.495C127.725 31.5048 128.053 31.5379 128.401 31.5903C128.391 32.0515 128.328 32.3479 128.216 32.4766C128.126 32.5557 127.942 32.5951 127.655 32.5951C127.157 32.582 126.171 32.618 124.701 32.7104C124.44 32.7237 124.267 32.6971 124.178 32.6313C124.067 32.5554 123.987 32.2065 123.936 31.5903C123.949 31.5903 123.974 31.5903 124.009 31.5903H124.009ZM128.347 30.2199C127.224 30.3746 125.824 30.3813 124.139 30.2396C123.993 30.2002 123.904 30.1935 123.878 30.2199C123.878 29.7818 123.916 29.5249 123.992 29.4458C124.117 29.3568 124.739 29.2876 125.862 29.2348C127.256 29.1954 128.04 29.2348 128.216 29.3502C128.302 29.4391 128.365 29.7288 128.401 30.2199C128.391 30.2066 128.372 30.2066 128.346 30.2199H128.347ZM125.112 28.0954C124.777 28.0954 124.465 28.1084 124.178 28.1348C124.825 27.5153 125.17 27.1827 125.205 27.13C125.195 27.1167 125.195 27.1071 125.205 27.0938C125.668 27.0805 126.104 27.0871 126.516 27.1103C126.478 27.1497 126.452 27.2027 126.439 27.265C126.401 27.3571 126.458 27.6208 126.608 28.0589C126.159 28.0589 125.661 28.0687 125.113 28.0951L125.112 28.0954ZM126.008 20.6639C126.098 20.9736 126.098 21.2897 126.008 21.6125C125.973 21.7014 125.954 21.8037 125.954 21.919C125.38 21.919 124.777 21.932 124.139 21.9584C124.139 21.8825 124.136 21.6684 124.123 21.3225C124.123 21.0524 124.136 20.7758 124.159 20.4924C124.844 20.453 125.457 20.453 125.993 20.4924C125.993 20.5419 125.999 20.6013 126.008 20.6636V20.6639ZM127.374 21.8037C127.3 21.5731 127.313 21.1941 127.412 20.6639C127.412 20.6147 127.418 20.5683 127.431 20.5289C128.228 20.5422 128.857 20.5753 129.319 20.6277C129.444 20.6639 129.504 20.71 129.504 20.7627C129.517 21.0823 129.511 21.3984 129.485 21.7081C129.485 21.7573 129.373 21.8101 129.15 21.8628C128.614 21.8628 128.021 21.8758 127.374 21.899C127.374 21.8628 127.374 21.8298 127.374 21.8034V21.8037ZM122.739 20.7627C122.825 21.1614 122.832 21.5006 122.758 21.784C122.745 21.8364 122.733 21.906 122.72 21.9981C122.261 21.9848 121.786 21.9914 121.301 22.0178C121.176 21.9784 121.107 21.9254 121.094 21.8631C121.008 21.5401 121.014 21.1747 121.113 20.7627C121.113 20.7494 121.151 20.7167 121.224 20.6639C121.636 20.588 122.136 20.5419 122.72 20.5289C122.72 20.5816 122.727 20.6575 122.739 20.7627Z" fill="#332C2B"/>
<path d="M39.061 10.9307C38.4915 10.8965 37.9681 10.8695 37.4892 10.8516C37.3593 10.8516 37.2802 10.8084 37.2527 10.7206C37.2412 10.6401 37.2886 10.5494 37.3955 10.4509C37.5139 10.3628 37.6219 10.3081 37.7173 10.2855C37.8023 10.2678 37.9206 10.2901 38.0719 10.3541C38.1223 10.366 38.2102 10.393 38.3344 10.4329C38.4525 10.4448 38.7106 10.4703 39.1115 10.512C39.2571 10.512 39.3654 10.552 39.4316 10.634C39.4995 10.698 39.5051 10.771 39.449 10.8513C39.387 10.9095 39.2574 10.9362 39.061 10.9304V10.9307ZM39.0941 12.1962C39.1561 12.2602 39.1648 12.3376 39.1199 12.4315C39.1084 12.4955 39.0767 12.7606 39.0262 13.225C38.9987 13.6732 38.8891 14.0797 38.6974 14.4462C38.523 14.7901 38.2275 15.1743 37.8093 15.5987C37.5282 15.9009 37.3178 16.0469 37.1764 16.035C37.0524 16.0232 36.966 15.947 36.9138 15.807C36.8863 15.6743 36.9514 15.5405 37.1085 15.4063C37.6494 14.9521 38.0242 14.5708 38.2318 14.2625C38.4351 13.9661 38.565 13.67 38.6211 13.3733C38.6716 13.0816 38.6542 12.8032 38.5706 12.5352C38.5302 12.4485 38.4497 12.4071 38.3255 12.4129C38.0099 12.4129 37.6996 12.4428 37.3955 12.501C37.1649 12.565 36.9817 12.5413 36.8462 12.4309C36.7337 12.3147 36.7539 12.1927 36.9068 12.0647C37.0754 11.9424 37.2471 11.8978 37.4216 11.9337C37.7375 11.9916 38.1815 12.038 38.7569 12.0736C38.9199 12.0841 39.0321 12.1258 39.0944 12.1956L39.0941 12.1962ZM41.1718 10.302C41.3867 10.3318 41.5971 10.357 41.8064 10.3808C42.06 10.3869 42.4148 10.3808 42.8704 10.3628C43.0564 10.3509 43.1745 10.3837 43.225 10.4596C43.2713 10.5236 43.2654 10.6042 43.2093 10.7038C43.1529 10.7844 43.0348 10.82 42.8544 10.8081C42.4881 10.7962 42.0816 10.7991 41.6375 10.8171C41.4069 10.8171 41.2237 10.8412 41.0882 10.8872C40.8963 10.9336 40.7695 10.9127 40.7075 10.8264C40.6511 10.7383 40.6772 10.6221 40.7838 10.4764C40.9019 10.3379 41.0318 10.28 41.1718 10.3023V10.302ZM41.9836 15.3116C42.0168 13.985 42.0313 13.1969 42.0255 12.9469C42.0154 12.7548 41.9952 12.5911 41.9663 12.4569C41.9663 12.4465 41.9635 12.4407 41.9576 12.4407C41.7326 12.4288 41.5107 12.4317 41.2916 12.4497C40.9642 12.4723 40.7162 12.514 40.5476 12.572C40.3905 12.618 40.2578 12.6644 40.1512 12.7105C39.9708 12.7922 39.8294 12.7806 39.7287 12.6763C39.6496 12.5601 39.6695 12.4173 39.7879 12.2489C39.8715 12.1446 39.9753 12.0971 40.0993 12.109C40.2174 12.1151 40.5117 12.0942 40.979 12.0479C41.4461 12.0015 41.9219 11.9899 42.4064 12.0137C42.9139 12.036 43.5384 12.1151 44.2824 12.2489C44.4005 12.2608 44.4221 12.3306 44.3503 12.4572C44.2883 12.5749 44.2004 12.6853 44.0877 12.7896C43.9926 12.8715 43.8655 12.8805 43.707 12.8165C43.4994 12.7107 43.2932 12.6334 43.0912 12.5798C42.9442 12.5456 42.7523 12.5111 42.5158 12.4755C42.5158 12.4874 42.513 12.5082 42.5071 12.5366C42.4855 12.6647 42.4622 12.8568 42.4392 13.1129C42.4911 13.9215 42.5214 14.687 42.5329 15.4078C42.5501 15.7337 42.5299 15.9722 42.4737 16.1225C42.4291 16.2567 42.3498 16.3294 42.2373 16.3413C42.1408 16.3413 42.0687 16.2773 42.0168 16.1492C41.9778 16.0269 41.9663 15.7471 41.9836 15.3122V15.3116ZM49.9478 13.0943C49.9363 13.2803 49.9307 13.5796 49.9307 13.9936C49.9422 14.3883 49.9652 14.6681 49.9986 14.8304V14.9793C50.2177 14.9613 50.4382 14.9376 50.6576 14.9092C50.6907 14.6826 50.7081 14.1736 50.7081 13.3829C50.7081 12.5505 50.6893 12.0261 50.6489 11.8117C50.6489 11.7941 50.6461 11.779 50.6402 11.7686C50.1616 11.7686 49.8067 11.8027 49.5747 11.8729C49.3786 11.9192 49.2431 11.8984 49.1696 11.8117C49.1135 11.7121 49.1421 11.5901 49.2549 11.4455C49.373 11.3056 49.5071 11.2445 49.66 11.2624C49.9484 11.3027 50.2351 11.3325 50.5223 11.3488C50.8612 11.3548 51.3398 11.3383 51.9587 11.2966C52.1562 11.2847 52.2802 11.3204 52.3307 11.4024C52.3812 11.4649 52.3756 11.5498 52.3136 11.6541C52.2575 11.7361 52.1332 11.7732 51.943 11.7689C51.7006 11.757 51.4498 11.7541 51.1903 11.7599V11.7941C51.1513 12.0322 51.1342 12.5653 51.1398 13.3904C51.2077 13.362 51.3056 13.3218 51.4352 13.2682C51.6038 13.1879 51.7166 13.1297 51.7727 13.0941C51.8246 13.0657 51.8549 13.039 51.8664 13.015C51.9343 12.9286 51.9963 12.8823 52.0524 12.8765C52.1029 12.8765 52.1736 12.9257 52.2628 13.0239C52.3481 13.1056 52.3896 13.1847 52.3896 13.2606C52.3896 13.3189 52.3189 13.3797 52.1792 13.4437C51.8128 13.5243 51.5449 13.5793 51.376 13.6092C51.2809 13.6092 51.2015 13.6124 51.1395 13.6182C51.1395 14.1825 51.1482 14.5832 51.1656 14.8214C51.4972 14.7574 51.8131 14.7052 52.1113 14.6652C52.2973 14.6652 52.4039 14.7174 52.4331 14.8214C52.4488 14.9211 52.384 14.9854 52.2384 15.0135C51.5334 15.1772 50.9058 15.3157 50.3537 15.4333C49.8232 15.5315 49.4597 15.6207 49.2622 15.7027C49.0877 15.7491 48.9623 15.7268 48.8829 15.6326C48.8094 15.5344 48.877 15.4003 49.0849 15.2319C49.2549 15.092 49.4238 15.0161 49.5924 15.0039V14.8906C49.5924 14.7863 49.575 14.4899 49.5419 14.0015C49.513 13.5176 49.4827 13.2331 49.4482 13.1453C49.4207 13.0234 49.4207 12.9159 49.4482 12.8237C49.4945 12.7357 49.5536 12.6928 49.6271 12.6928C49.7049 12.6928 49.7814 12.7302 49.8549 12.8061C49.9228 12.8643 49.9545 12.9593 49.9486 13.0938L49.9478 13.0943ZM52.474 13.5127C52.8286 12.9958 53.0912 12.4929 53.2598 12.0044C53.4228 11.5159 53.4702 11.0185 53.404 10.5123C53.3925 10.3605 53.4284 10.271 53.5137 10.2411C53.6147 10.2127 53.7213 10.244 53.8338 10.3379C53.9522 10.4303 54.0285 10.53 54.063 10.6343C54.0961 10.7325 54.0961 10.8174 54.063 10.8875C53.9491 11.1436 53.8265 11.4893 53.691 11.9256C53.6795 11.9896 53.6537 12.0655 53.6147 12.1519C53.7673 12.1519 54.0846 12.1472 54.5694 12.1356C55.0595 12.1177 55.4878 12.1058 55.8539 12.0997C56.0054 12.0997 56.1134 12.1177 56.174 12.1519C56.2259 12.1817 56.2419 12.2457 56.2259 12.344C56.2144 12.4259 56.1608 12.5019 56.0643 12.572C55.9922 12.6299 55.8783 12.6435 55.7268 12.6151C55.5178 12.5688 55.1574 12.545 54.6454 12.545C54.1494 12.545 53.744 12.5778 53.4284 12.6418H53.4113C53.2988 12.8965 53.1501 13.1882 52.9644 13.513C52.8519 13.6993 52.7394 13.8302 52.6269 13.9061C52.5304 13.9644 52.4496 13.9705 52.3817 13.9241C52.3354 13.872 52.3674 13.7349 52.474 13.513V13.5127ZM52.2114 15.6856C52.5099 15.6856 52.8039 15.6393 53.0912 15.5471C53.3782 15.4652 53.6088 15.358 53.7833 15.2241C53.9519 15.1018 54.1222 14.9248 54.2908 14.6907C54.3023 14.6565 54.3211 14.6192 54.3497 14.5774C54.3441 14.5774 54.3382 14.5685 54.3326 14.5522L54.3239 14.5612C54.1999 14.4392 54.0655 14.3216 53.9188 14.2112C53.7718 14.095 53.59 13.9939 53.3695 13.9059C53.172 13.8195 53.0769 13.7317 53.0825 13.6439C53.0999 13.5576 53.1866 13.5055 53.3451 13.4878C53.4963 13.4698 53.6652 13.5339 53.8512 13.6799C54.0992 13.8482 54.327 14.0374 54.536 14.2472C54.5691 14.1594 54.6067 14.064 54.6457 13.9583C54.7251 13.7141 54.7525 13.5191 54.7309 13.3745C54.7194 13.2346 54.7382 13.1245 54.7899 13.0425C54.8404 12.9724 54.9052 12.9414 54.9831 12.9472C55.1358 12.9576 55.2283 13.0546 55.2628 13.2349C55.2729 13.3166 55.2628 13.3881 55.2283 13.4522C55.2008 13.5101 55.1604 13.6335 55.1099 13.8198C55.0308 14.0924 54.9413 14.3306 54.8404 14.5346L55.5669 15.1809C55.9375 15.4996 56.3353 15.7975 56.7581 16.0701C56.8417 16.1165 56.7884 16.1892 56.5965 16.2891C56.4004 16.365 56.2057 16.3902 56.0138 16.3665C55.8334 16.35 55.6562 16.219 55.4817 15.9748C55.2222 15.6083 55 15.3136 54.814 15.0932L54.6454 14.8921C54.4984 15.114 54.3295 15.3119 54.1379 15.4863C53.9477 15.6486 53.6851 15.8079 53.3521 15.9658C53.0379 16.1162 52.7582 16.2097 52.5158 16.2442C52.3354 16.2859 52.1783 16.2859 52.0428 16.2442C51.9303 16.1982 51.8568 16.1341 51.8237 16.0536C51.8122 15.9716 51.8352 15.8899 51.8916 15.8079C51.9595 15.7276 52.0661 15.6859 52.2117 15.6859L52.2114 15.6856ZM62.2967 10.0937C62.7366 10.2217 63.1086 10.3052 63.413 10.3454C63.5255 10.3573 63.6349 10.4048 63.7418 10.4854C63.8543 10.5494 63.9104 10.6343 63.9104 10.7386C63.8888 10.8548 63.7864 11.0185 63.606 11.2271C63.443 11.4131 63.3249 11.5443 63.2514 11.6202C63.1793 11.6782 63.1765 11.7544 63.2441 11.8465C63.5137 12.1148 63.6767 12.3245 63.7328 12.4749C63.8007 12.6091 63.8265 12.7548 63.8091 12.9112C63.7861 13.0631 63.7168 13.2195 63.5987 13.3835C63.4688 13.5518 63.3002 13.6828 63.0912 13.7752C62.8937 13.8511 62.6948 13.8972 62.4914 13.9151C62.35 13.9151 62.2692 13.8809 62.2462 13.8108C62.2403 13.7407 62.3082 13.6677 62.4496 13.5921C62.7366 13.4522 62.9874 13.2612 63.2006 13.0155C63.319 12.8472 63.3622 12.685 63.3274 12.5271C63.2713 12.3411 63.186 12.2069 63.0738 12.1264C62.9669 12.0386 62.8516 12.0073 62.7276 12.0296C62.6207 12.0713 62.5444 12.0537 62.4998 11.9775C62.4709 11.8911 62.5113 11.8004 62.6182 11.708C62.8373 11.5562 63.0017 11.3966 63.1083 11.2271C63.2208 11.0529 63.2856 10.8933 63.3013 10.7476C63.2912 10.6775 63.2264 10.6343 63.1083 10.6166C62.8993 10.5184 62.621 10.4706 62.2718 10.4767C62.2718 10.4886 62.269 10.5033 62.2631 10.5213C62.2227 10.6195 62.1983 10.7508 62.1868 10.913C62.1753 11.8155 62.1809 13.4148 62.2039 15.7126C62.2039 15.8989 62.1781 16.0449 62.1276 16.1489C62.083 16.2428 62.0238 16.2917 61.9503 16.2978C61.8942 16.2978 61.835 16.2219 61.773 16.0698C61.7169 15.9137 61.6967 15.6691 61.7138 15.3374C61.7469 14.0687 61.7587 12.6241 61.7469 11.0011C61.7469 10.791 61.7281 10.6346 61.6877 10.5303C61.6602 10.5303 61.6316 10.5274 61.6041 10.5213C61.5247 10.4857 61.4888 10.4245 61.4944 10.3382C61.5101 10.2501 61.5839 10.1655 61.7135 10.085C61.8319 10.003 62.0263 10.0059 62.2962 10.094L62.2967 10.0937ZM67.3492 11.2537C67.0681 11.2418 66.6787 11.2418 66.1841 11.2537C65.7675 11.2537 65.4401 11.2714 65.2036 11.3059C64.9946 11.3296 64.8634 11.3731 64.8056 11.4368C64.784 11.4652 64.761 11.5246 64.7391 11.611C64.7276 11.6869 64.7133 11.8117 64.6959 11.9861C64.6959 12.1843 64.6656 12.3185 64.6036 12.3883C64.5475 12.4462 64.4796 12.4746 64.4002 12.4746C64.3382 12.4627 64.2821 12.4225 64.2316 12.3526C64.2041 12.2825 64.1898 12.1455 64.1898 11.943C64.2173 11.7912 64.2678 11.6049 64.3413 11.3844C64.3758 11.2103 64.435 11.0822 64.5186 11.0002C64.6036 10.9182 64.7896 10.8722 65.0766 10.8603C65.3579 10.8484 65.6794 10.8452 66.0396 10.8513C66.0396 10.747 66.0338 10.6488 66.0225 10.5549C66.0166 10.4686 65.9978 10.3779 65.9633 10.2852C65.9243 10.1334 65.972 10.0395 66.1075 10.0053C66.243 9.97111 66.3642 9.99342 66.4711 10.0754C66.5721 10.1574 66.5951 10.2855 66.539 10.4596C66.5101 10.5401 66.4798 10.6711 66.4453 10.8513C66.8852 10.8513 67.2541 10.8574 67.5526 10.8693C67.8006 10.8693 68.0026 10.9124 68.1611 11.0002C68.3123 11.0761 68.4091 11.1596 68.448 11.2534C68.4811 11.3293 68.4985 11.4707 68.4985 11.6808C68.51 11.7268 68.5215 11.779 68.5316 11.8369C68.5488 11.8787 68.5575 11.9398 68.5575 12.02C68.5575 12.1377 68.5286 12.233 68.4725 12.3089C68.4276 12.3732 68.3774 12.4132 68.3212 12.4312C68.2822 12.4312 68.236 12.4164 68.1857 12.388C68.1468 12.3524 68.1151 12.2599 68.0935 12.1081C68.0704 12.0261 68.0502 11.9218 68.0343 11.7938C68.0228 11.6715 67.9998 11.5675 67.9664 11.4794C67.9375 11.3989 67.9103 11.3514 67.8814 11.3395C67.8194 11.3053 67.6418 11.2755 67.3492 11.2531V11.2537ZM65.6853 11.9073C65.8539 11.9311 66.0284 11.952 66.2088 11.9685C66.4122 11.9746 66.6989 11.9714 67.0712 11.9609C67.2398 11.9491 67.3436 11.9772 67.384 12.0473C67.4289 12.1052 67.423 12.1782 67.3669 12.266C67.322 12.33 67.2171 12.3613 67.0541 12.3613C66.7556 12.3495 66.4268 12.3495 66.0663 12.3613C65.8747 12.3613 65.7246 12.3822 65.618 12.4225C65.4435 12.4625 65.3282 12.4462 65.2718 12.3703C65.2269 12.2883 65.2485 12.1843 65.3397 12.056C65.4407 11.934 65.556 11.8847 65.6859 11.9071L65.6853 11.9073ZM66.3182 13.0555C66.6226 13.0376 67.1862 13.0318 68.0082 13.0376C68.1942 13.0376 68.2851 13.0749 68.2792 13.1494C68.2677 13.2238 68.197 13.3027 68.0674 13.3893C67.9549 13.4637 67.8079 13.486 67.6275 13.4577C67.4474 13.44 67.2196 13.4278 66.9441 13.4235C66.9441 13.4858 66.9354 13.5649 66.918 13.6573C66.8964 13.7213 66.8459 14.0893 66.7665 14.7576C66.7665 14.9602 66.7968 15.136 66.8588 15.2803C66.9051 15.362 66.98 15.4292 67.0866 15.4811C67.2221 15.5274 67.4457 15.575 67.7543 15.621C68.0587 15.6494 68.3064 15.6494 68.4983 15.621C68.7174 15.5854 68.9179 15.5138 69.0981 15.4023C69.2667 15.3041 69.3287 15.362 69.284 15.5764C69.2392 15.7804 69.1427 15.9725 68.9971 16.1527C68.8672 16.3225 68.6927 16.385 68.4722 16.3448C67.8923 16.2286 67.3402 16.0721 66.8167 15.8742C66.4851 15.7001 66.3379 15.338 66.3769 14.7915C66.4389 14.0991 66.4677 13.6495 66.4619 13.4394V13.4232C66.371 13.4232 66.2731 13.4275 66.1664 13.4394C66.0871 13.4394 66.0035 13.4394 65.9126 13.4394C65.9126 13.4632 65.9069 13.4887 65.8954 13.5182C65.8738 13.5988 65.8537 13.7045 65.8363 13.8326C65.7973 14.0887 65.7151 14.3552 65.5911 14.6354C65.4786 14.908 65.3302 15.1415 65.1442 15.3336C64.9812 15.5138 64.7865 15.6761 64.5615 15.8221C64.3469 15.9548 64.1463 16.0574 63.9617 16.1275C63.8203 16.1559 63.7078 16.1498 63.6228 16.1095C63.5434 16.0634 63.496 15.9991 63.48 15.9174C63.4685 15.8293 63.5044 15.7491 63.5897 15.6732C63.6733 15.6031 63.8119 15.5361 64.0035 15.4721C64.1665 15.4379 64.3581 15.338 64.5775 15.1757C64.798 15.0239 64.9753 14.8556 65.1094 14.6696C65.2449 14.4775 65.3445 14.2599 65.4065 14.0157C65.4671 13.7714 65.4901 13.5912 65.473 13.4736C65.2595 13.4855 65.0735 13.5153 64.9164 13.5614C64.651 13.6254 64.4852 13.6225 64.4173 13.5524C64.3612 13.4721 64.3612 13.3768 64.4173 13.2679C64.4793 13.1668 64.5946 13.0952 64.7635 13.0549C64.9265 13.0208 65.0909 13.0086 65.2536 13.0208C65.3156 13.0431 65.4511 13.0549 65.6587 13.0549C65.8621 13.0549 66.0812 13.0549 66.3177 13.0549L66.3182 13.0555ZM77.8211 12.4228C77.2185 12.4228 76.757 12.4526 76.4355 12.5105C76.2265 12.5389 76.075 12.5268 75.9785 12.4749C75.9005 12.4228 75.8601 12.2947 75.8601 12.0907C75.8601 11.9522 75.8559 11.7857 75.8444 11.5933C75.8385 11.4012 75.8329 11.2389 75.827 11.1048C75.827 10.9707 75.827 10.8695 75.827 10.7997C75.8155 10.6656 75.8357 10.5674 75.8862 10.5033C75.9482 10.4393 76.0374 10.408 76.1558 10.408C76.3592 10.408 76.5985 10.4048 76.8754 10.399V10.311C76.8639 10.1247 76.897 9.99661 76.9764 9.92678C77.06 9.85667 77.145 9.86565 77.23 9.95373C77.3079 10.0357 77.3425 10.1739 77.331 10.3721V10.3898C77.6006 10.3779 77.8572 10.3721 78.0993 10.3721C78.0993 10.3379 78.1024 10.311 78.108 10.293C78.1021 10.1189 78.1411 9.99371 78.2261 9.9178C78.3114 9.84914 78.3947 9.85986 78.48 9.95344C78.5479 10.0354 78.5751 10.1736 78.5636 10.3718H79.1634C79.3668 10.3779 79.5242 10.4211 79.6378 10.5028C79.7388 10.5671 79.7778 10.6862 79.7562 10.8603C79.7273 11.1625 79.7127 11.4977 79.7127 11.8639C79.7127 12.324 79.5079 12.5189 79.0972 12.4491C78.9558 12.4372 78.5305 12.4283 77.8211 12.4225V12.4228ZM78.0937 11.2239C78.0937 11.1361 78.0937 11.0498 78.0937 10.962V10.6835C77.9321 10.6835 77.7532 10.6867 77.5587 10.6925H77.3324C77.3324 10.8252 77.3324 10.971 77.3324 11.1274V11.2242C77.4867 11.2242 77.6625 11.2242 77.8631 11.2242C77.9422 11.2242 78.0202 11.2242 78.0937 11.2242V11.2239ZM78.5176 11.157C78.5176 11.1688 78.5176 11.1897 78.5176 11.2181C78.884 11.2077 79.1463 11.1955 79.3034 11.1839C79.2975 10.9397 79.2717 10.7997 79.2271 10.7655C79.1707 10.7177 78.9401 10.6925 78.535 10.6867C78.5291 10.8325 78.5235 10.9889 78.5176 11.1572V11.157ZM78.0505 11.8598C78.0505 11.7555 78.0564 11.6469 78.0679 11.5368C77.9784 11.5368 77.8833 11.5368 77.7837 11.5368H77.3497C77.3497 11.6127 77.3497 11.6767 77.3497 11.7289C77.3497 11.8569 77.3497 11.9641 77.3497 12.0522H77.5127C77.7001 12.0403 77.8791 12.0342 78.0505 12.0342C78.0505 11.9821 78.0505 11.9239 78.0505 11.8601V11.8598ZM78.4918 11.7764C78.4918 11.8703 78.4918 11.9595 78.4918 12.0476C78.5538 12.0476 78.6217 12.0537 78.6952 12.0655C78.9648 12.0774 79.1452 12.0447 79.2361 11.9688C79.2692 11.9166 79.2922 11.7915 79.304 11.5933C79.157 11.5649 78.8857 11.5501 78.4921 11.5501V11.7764H78.4918ZM76.9172 11.2181C76.9172 11.1315 76.9172 11.0469 76.9172 10.9663C76.9172 10.8782 76.9172 10.7907 76.9172 10.7041C76.5393 10.7102 76.3261 10.7444 76.2753 10.8084C76.2464 10.8322 76.2321 10.9573 76.2321 11.1839C76.3676 11.1958 76.5957 11.2077 76.9169 11.2181H76.9172ZM76.9346 11.8465C76.9346 11.7483 76.9346 11.6515 76.9346 11.5591C76.603 11.5591 76.3707 11.5771 76.2425 11.6112C76.2582 11.8436 76.2871 11.9746 76.3261 12.0044C76.3766 12.0505 76.4975 12.0774 76.6894 12.0832C76.7573 12.0832 76.8395 12.0803 76.9346 12.0742C76.9346 12.0041 76.9346 11.9282 76.9346 11.8462V11.8465ZM77.6123 15.2328C77.8934 15.127 78.0996 15.0288 78.2295 14.9364C78.3476 14.8365 78.4455 14.7576 78.5249 14.6997C78.6029 14.6296 78.6851 14.5954 78.7701 14.5954C78.854 14.5954 78.9 14.6565 78.9056 14.7785C78.9056 14.8425 78.8767 14.9127 78.8206 14.9886C78.9042 15.0465 79.0338 15.127 79.2086 15.2328C79.5071 15.395 79.8704 15.55 80.2988 15.6943C80.7212 15.8285 81.0399 15.8983 81.2534 15.9044C81.507 15.9044 81.5892 15.9594 81.4986 16.0695C81.4091 16.1695 81.2405 16.2825 80.9925 16.4105C80.7501 16.5267 80.5324 16.5148 80.3422 16.3749C79.7901 15.9922 79.3949 15.73 79.1584 15.59C78.9334 15.4501 78.7732 15.3667 78.6767 15.3368C78.5987 15.3084 78.5193 15.2905 78.4402 15.2847C78.4183 15.2847 78.3981 15.2757 78.381 15.258C78.2685 15.2994 78.133 15.3429 77.9759 15.389C77.7627 15.4307 77.6067 15.4339 77.5116 15.3979C77.4322 15.3516 77.4653 15.2965 77.6126 15.2325L77.6123 15.2328ZM79.5388 13.1555H76.2181C76.2181 13.2551 76.224 13.3803 76.2352 13.531C76.3205 13.4968 76.4487 13.4817 76.6232 13.4878H78.0017C78.4068 13.4939 78.8321 13.4997 79.2765 13.5055C79.513 13.5055 79.663 13.531 79.7248 13.5828C79.7753 13.6306 79.7927 13.6947 79.7753 13.7749C79.752 13.8508 79.66 13.8911 79.497 13.8969C78.8091 13.8685 78.2006 13.8508 77.6712 13.8447C77.1868 13.8447 76.7901 13.8717 76.4804 13.9235C76.3836 13.9354 76.3 13.9383 76.2265 13.9325C76.215 14.007 76.1934 14.0979 76.1586 14.2022H76.2265H77.8067C78.6012 14.1739 79.2992 14.1649 79.9018 14.1768C80.0373 14.1768 80.1355 14.1947 80.1975 14.2289C80.248 14.2573 80.2654 14.3167 80.248 14.403C80.2365 14.485 80.186 14.558 80.0968 14.6221C80.0233 14.6681 79.9136 14.68 79.7666 14.6562C79.435 14.5743 78.8568 14.5311 78.0348 14.5253C77.6684 14.5253 77.334 14.5314 77.0299 14.543C77.0299 14.5714 77.024 14.6131 77.0125 14.6652C76.9836 14.7814 76.9592 15.0897 76.9362 15.59C76.9146 15.7062 76.9534 15.7642 77.0543 15.7642C77.3761 15.73 77.683 15.6836 77.9756 15.6242C78.156 15.6077 78.2511 15.6361 78.2626 15.712C78.2626 15.7763 78.1588 15.8461 77.9498 15.9221C77.2462 16.1364 76.7876 16.3048 76.5727 16.4285C76.3926 16.5447 76.2554 16.5476 76.1589 16.436C76.0795 16.3317 76.1171 16.2008 76.2686 16.0443C76.433 15.8925 76.5137 15.7329 76.5137 15.5634C76.5642 15.0227 76.5598 14.7026 76.4978 14.6044C76.3393 14.6044 76.1906 14.6223 76.0495 14.6565H76.0164C75.9544 14.8023 75.8694 14.9468 75.7628 15.0929C75.5998 15.331 75.3793 15.5874 75.1038 15.8612C74.844 16.1159 74.6193 16.2274 74.4274 16.1918C74.2184 16.1396 74.1028 16.0666 74.0812 15.9745C74.0812 15.9044 74.2139 15.7914 74.4776 15.6335C74.743 15.4773 74.9795 15.2939 75.1871 15.0842C75.3905 14.8799 75.5504 14.6597 75.6688 14.4213C75.7813 14.177 75.8461 13.9821 75.8635 13.836C75.8806 13.6961 75.8806 13.5634 75.8635 13.4353C75.852 13.3134 75.8214 13.1972 75.7712 13.0854C75.7653 13.0691 75.7597 13.0451 75.7538 13.0152C75.7423 12.9466 75.7482 12.8962 75.7712 12.8678C75.7712 12.8559 75.7799 12.8469 75.7959 12.8408C75.8304 12.7887 75.9314 12.7635 76.1 12.7635L77.545 12.7977C77.832 12.7977 78.4851 12.7829 79.5046 12.7545C79.6516 12.7545 79.7467 12.7887 79.7929 12.8588C79.8378 12.9228 79.8406 12.9929 79.8016 13.0688C79.7727 13.1268 79.6849 13.1552 79.5393 13.1552L79.5388 13.1555Z" fill="#332C2B"/>
<path d="M89.7645 11.5854C88.451 11.5959 87.4573 11.6718 86.781 11.8117C86.5504 11.8581 86.3975 11.8297 86.3254 11.7239C86.2634 11.6196 86.3024 11.5005 86.4438 11.3664C86.595 11.2441 86.7841 11.1714 87.0091 11.1491C87.1445 11.1491 87.5224 11.1401 88.141 11.1222C88.1584 11.1222 88.1755 11.1193 88.1915 11.1132C88.1354 11.015 88.0372 10.8959 87.8961 10.7557C87.7505 10.6215 87.6913 10.5024 87.7188 10.3981C87.7533 10.2924 87.8658 10.2492 88.0577 10.2672C88.2437 10.2791 88.3531 10.3863 88.3865 10.5902C88.421 10.7406 88.4687 10.8924 88.5307 11.0431C88.5307 11.0549 88.5394 11.0787 88.5554 11.1132H89.2402C89.2402 11.0265 89.2402 10.9269 89.2402 10.8168C89.2343 10.7125 89.2258 10.616 89.2141 10.5294C89.2099 10.4416 89.1953 10.3509 89.1723 10.2585C89.1608 10.0844 89.2127 9.98151 89.3266 9.95312C89.4419 9.91748 89.5398 9.9592 89.6206 10.0751C89.6884 10.1733 89.7087 10.3103 89.6812 10.4848C89.6753 10.5146 89.6669 10.5876 89.6551 10.7035V11.1132C89.6882 11.1132 89.7258 11.1161 89.7648 11.1222C89.9334 11.1222 90.1053 11.1251 90.2812 11.1311C90.2812 11.0434 90.2885 10.9243 90.3056 10.7736C90.3056 10.5876 90.2969 10.3984 90.2812 10.2063C90.2812 10.0322 90.3373 9.93226 90.4498 9.90995C90.5623 9.89199 90.6518 9.93834 90.7194 10.0484C90.7873 10.1603 90.8016 10.2985 90.7629 10.4682C90.757 10.4966 90.7427 10.5694 90.7194 10.6855C90.7135 10.7838 90.7051 10.8747 90.695 10.9564C90.695 11.0147 90.6891 11.0755 90.6776 11.1395C90.8751 11.1395 91.067 11.1427 91.2516 11.1485C91.2861 11.0949 91.3453 11.0115 91.4289 10.8953C91.6323 10.5453 91.7591 10.3338 91.8096 10.2579C91.8716 10.1417 91.9681 10.127 92.0966 10.2144C92.2321 10.295 92.3 10.3947 92.3 10.5108C92.3 10.6091 92.2352 10.6968 92.1056 10.7727C92.0433 10.7951 91.9078 10.8918 91.7005 11.0602C91.6556 11.09 91.6124 11.1213 91.5737 11.1555C92.1995 11.1674 92.6607 11.1853 92.9592 11.2091C93.3427 11.2195 93.6126 11.2256 93.7697 11.2256C93.9341 11.2256 93.9672 11.3015 93.8721 11.4533C93.7812 11.6037 93.6746 11.7407 93.5506 11.863C93.4381 11.9612 93.2838 11.9763 93.0863 11.9062C92.5729 11.7558 92.025 11.6619 91.4382 11.6277C90.8586 11.5921 90.3003 11.5785 89.7653 11.5846L89.7645 11.5854ZM89.7429 14.7217C88.9035 14.7217 88.2664 14.7649 87.8321 14.8527C87.6363 14.8926 87.5005 14.8674 87.427 14.7736C87.3707 14.6753 87.4069 14.5696 87.5367 14.4595C87.6722 14.3552 87.838 14.2941 88.0355 14.2761H88.7363C88.9899 14.2642 89.3361 14.2613 89.776 14.2671C89.776 14.111 89.776 13.9499 89.776 13.7876H89.6997C89.1706 13.7876 88.7422 13.8175 88.4165 13.8754C88.2016 13.9157 88.0616 13.8858 87.994 13.7876C87.9477 13.6833 87.9651 13.5926 88.0445 13.5164C88.1281 13.4359 88.3012 13.4003 88.5593 13.4121C88.9818 13.4121 89.3897 13.4121 89.7847 13.4121V13.3852C89.7847 13.1737 89.7645 13.0115 89.7258 12.8999C89.5628 12.8999 89.3838 12.9103 89.1936 12.9341C88.6631 12.9579 88.3197 12.9935 88.1626 13.0413C87.9996 13.0816 87.9031 13.0575 87.8756 12.9697C87.8641 12.8701 87.8972 12.7611 87.9766 12.6421C88.0616 12.5378 88.2072 12.496 88.4165 12.5201C88.5677 12.5244 88.7857 12.5334 89.0668 12.5453C89.0222 12.4752 88.9543 12.392 88.8637 12.2921C88.7902 12.2057 88.7122 12.1266 88.6272 12.0568C88.5537 11.9867 88.5349 11.9111 88.568 11.8305C88.6025 11.7604 88.692 11.7187 88.839 11.7086C88.9731 11.7086 89.0724 11.7607 89.1344 11.8647C89.1504 11.905 89.1765 11.9586 89.2096 12.0226C89.2441 12.0626 89.3005 12.1788 89.3796 12.3709C89.4127 12.4172 89.4385 12.4784 89.4545 12.5543H90.0097C90.1135 12.5543 90.2173 12.5511 90.3197 12.5453C90.3976 12.4291 90.4798 12.2953 90.5648 12.1446C90.6487 11.9867 90.7076 11.8705 90.7424 11.7946C90.8605 11.586 90.9817 11.5802 91.1057 11.7769C91.2182 11.9629 91.2067 12.1119 91.0712 12.222C90.9977 12.2518 90.8998 12.3248 90.7758 12.4407C90.7368 12.4691 90.6933 12.5018 90.649 12.536C91.0541 12.536 91.3338 12.527 91.4853 12.5105C91.8862 12.4928 92.091 12.5299 92.1025 12.6238C92.1199 12.7177 92.0708 12.8217 91.9583 12.9379C91.8514 13.0378 91.6828 13.0645 91.4522 13.017C91.1422 12.9289 90.7615 12.8889 90.3115 12.8947C90.2666 13.0109 90.2408 13.1806 90.2352 13.4026C90.6246 13.4087 91.0325 13.413 91.4609 13.4188C91.7131 13.4188 91.8719 13.4457 91.9336 13.4976C91.9956 13.5454 92.0144 13.6138 91.9928 13.7077C91.9698 13.7836 91.8688 13.8267 91.6884 13.8386L90.2349 13.7865V14.2747C90.9789 14.2865 91.4909 14.3074 91.772 14.3358C92.1053 14.3477 92.3415 14.3566 92.4829 14.3627C92.617 14.3627 92.6459 14.4268 92.5668 14.5548C92.4888 14.6875 92.3923 14.8051 92.2798 14.9034C92.1847 14.9958 92.0492 15.0106 91.8747 14.9465C91.5473 14.8422 91.1955 14.7782 90.8176 14.7544C90.6215 14.7382 90.4268 14.7289 90.2349 14.7289C90.2349 15.0372 90.2408 15.4005 90.252 15.8192C90.252 16.0052 90.226 16.1512 90.1757 16.2555C90.1295 16.3494 90.0705 16.3986 89.997 16.4044C89.9407 16.4044 89.8817 16.3285 89.8181 16.1767C89.762 16.0205 89.7432 15.776 89.7591 15.444C89.7591 15.2177 89.7619 14.9767 89.7678 14.7202H89.7432L89.7429 14.7217ZM87.5959 16.026C87.8669 15.8339 88.1452 15.6268 88.4336 15.4066C88.6182 15.2325 88.7711 15.1476 88.8892 15.1534C88.9902 15.1592 89.0637 15.2142 89.1086 15.3185C89.1431 15.4182 89.1257 15.5077 89.0581 15.5897C88.9846 15.6717 88.8101 15.7699 88.5346 15.8861L87.6478 16.2271C87.6015 16.239 87.5656 16.2361 87.5381 16.2181C87.5151 16.2002 87.5092 16.1718 87.521 16.13C87.5367 16.0959 87.5628 16.0599 87.5959 16.0257V16.026ZM91.9563 16.0961C91.5453 15.8684 91.2064 15.6911 90.9425 15.5631C90.83 15.5109 90.7809 15.435 90.7983 15.3368C90.8328 15.2386 90.9108 15.1627 91.0347 15.1102C91.1529 15.0581 91.2583 15.0804 91.3475 15.1803C91.4154 15.2609 91.669 15.4918 92.1075 15.8699C92.204 15.9325 92.2719 16.0055 92.3109 16.0872C92.344 16.1512 92.337 16.1976 92.2848 16.2271C92.2287 16.239 92.119 16.1944 91.956 16.0961H91.9563ZM102.784 11.088C103.207 11.0761 103.83 11.0732 104.652 11.079C104.838 11.079 104.929 11.1161 104.923 11.1923C104.911 11.2682 104.841 11.3484 104.711 11.4365C104.598 11.5124 104.453 11.5347 104.272 11.5066C103.906 11.4545 103.41 11.4336 102.784 11.4455C102.784 11.6077 102.79 11.8088 102.802 12.0472C102.802 12.2335 102.777 12.3793 102.725 12.4836C102.68 12.5774 102.621 12.6267 102.548 12.6325C102.492 12.6325 102.432 12.5566 102.37 12.4045C102.314 12.2483 102.295 12.0038 102.311 11.6718C102.311 11.6017 102.314 11.5318 102.32 11.4617C101.65 11.4678 101.138 11.5214 100.783 11.6196C100.518 11.6836 100.352 11.6807 100.284 11.6106C100.228 11.5286 100.228 11.4333 100.284 11.3232C100.346 11.2175 100.462 11.1459 100.63 11.1042C100.795 11.07 100.958 11.0581 101.121 11.07C101.2 11.0984 101.371 11.1135 101.635 11.1135C101.856 11.1135 102.09 11.1103 102.338 11.1045C102.338 11.0703 102.341 11.0344 102.346 11.0005C102.346 10.8084 102.329 10.6624 102.296 10.5641H101.703C101.36 10.5523 101.129 10.5271 101.011 10.4853C100.904 10.4512 100.857 10.4094 100.867 10.3631C100.884 10.3289 100.952 10.308 101.07 10.3022C101.274 10.2843 101.611 10.253 102.084 10.2069C102.557 10.1591 102.867 10.1191 103.014 10.0849C103.16 10.0493 103.257 10.0148 103.301 9.97919C103.402 9.91053 103.479 9.88387 103.529 9.90184C103.579 9.91372 103.636 9.98209 103.698 10.1101C103.748 10.2263 103.768 10.3202 103.757 10.39C103.745 10.4483 103.656 10.4882 103.487 10.5123L102.853 10.5375C102.814 10.6374 102.791 10.8206 102.785 11.0885L102.784 11.088ZM100.133 12.7632C100.621 12.5189 100.969 12.3002 101.171 12.1081C101.306 11.9682 101.445 11.9427 101.585 12.029C101.72 12.1049 101.755 12.2124 101.687 12.3523C101.613 12.4804 101.478 12.5711 101.28 12.6232C101.056 12.6872 100.828 12.7765 100.597 12.893C100.382 12.9926 100.18 13.0448 99.9886 13.0506C99.9437 13.0506 99.9151 13.0239 99.9033 12.9718C99.9033 12.9196 99.9799 12.8498 100.133 12.7632ZM103.224 11.925C103.253 11.8908 103.325 11.898 103.443 11.9516C104.036 12.2361 104.495 12.4433 104.822 12.5714C104.956 12.6174 104.985 12.6846 104.906 12.7707C104.826 12.8466 104.72 12.9196 104.584 12.9897C104.456 13.0358 104.317 13.0106 104.17 12.9106C103.839 12.638 103.543 12.37 103.284 12.1081C103.222 12.0261 103.201 11.965 103.224 11.925H103.224ZM104.036 13.9933C104.672 14.0397 105.401 14.1347 106.224 14.2807C106.353 14.2926 106.376 14.3717 106.291 14.516C106.218 14.6501 106.123 14.7692 106.004 14.875C105.898 14.9732 105.756 14.9882 105.582 14.9181C105.216 14.744 104.855 14.6128 104.5 14.525C104.338 14.4786 104.14 14.4415 103.909 14.4117C103.745 14.644 103.467 14.9091 103.073 15.2052C103.378 15.3571 103.709 15.5463 104.07 15.7725C104.368 15.9243 104.537 16.0466 104.577 16.1387C104.61 16.2207 104.613 16.2966 104.584 16.3653C104.557 16.4247 104.489 16.4621 104.382 16.48C104.286 16.4861 104.106 16.4012 103.842 16.2268C103.413 15.9469 103.024 15.6998 102.675 15.4851C102.123 15.8635 101.579 16.1657 101.044 16.3922C100.78 16.4739 100.597 16.5023 100.496 16.48C100.4 16.4444 100.344 16.3804 100.326 16.2879C100.326 16.1999 100.358 16.1211 100.42 16.0527C100.488 15.9887 100.678 15.9099 100.994 15.816C101.281 15.7459 101.641 15.6045 102.075 15.3886C102.143 15.3545 102.219 15.3127 102.303 15.2667L101.889 15.0314C101.378 14.753 101.082 14.5713 101.002 14.4908C100.979 14.4609 100.964 14.4328 100.952 14.4027C100.568 14.443 100.264 14.5041 100.039 14.5861C99.7639 14.68 99.5344 14.766 99.3543 14.848C99.1467 14.9462 98.9896 14.9361 98.8816 14.8124C98.7865 14.6901 98.8095 14.5311 98.9495 14.3329C99.085 14.1588 99.2508 14.0829 99.4483 14.1066C99.6458 14.1185 100.122 14.0857 100.876 14.0098C100.944 13.9994 101.017 13.9907 101.095 13.9846C101.215 13.8447 101.42 13.6616 101.712 13.435C101.999 13.1969 102.182 13.0138 102.262 12.8857C102.324 12.7858 102.394 12.7368 102.473 12.7368C102.551 12.7368 102.611 12.7681 102.651 12.8321C102.651 12.8382 102.657 12.8559 102.667 12.8857H102.684C103.287 13.2224 103.706 13.5454 103.943 13.8537C103.977 13.8835 104.008 13.9296 104.036 13.9936L104.036 13.9933ZM103.123 14.3419C102.588 14.3077 102.069 14.3045 101.569 14.3329C101.602 14.3746 101.661 14.421 101.746 14.4728C101.942 14.607 102.246 14.7811 102.659 14.9969C102.674 14.9969 102.698 15.0074 102.725 15.0311C102.872 14.9433 103.005 14.848 103.123 14.7437C103.292 14.5919 103.416 14.4667 103.495 14.3685L103.123 14.3416V14.3419ZM101.687 13.9412C102.177 13.9113 102.674 13.9113 103.182 13.9412C103.283 13.9412 103.395 13.9441 103.519 13.9487C103.255 13.7221 102.943 13.4779 102.582 13.216C102.542 13.2577 102.485 13.2948 102.414 13.3293C102.367 13.3412 102.213 13.4663 101.948 13.7048C101.841 13.7865 101.755 13.8656 101.687 13.9415V13.9412ZM114.382 10.2762C115.194 10.2585 115.844 10.2524 116.334 10.2585C116.554 10.2643 116.722 10.3077 116.84 10.3894C116.953 10.4654 116.996 10.5934 116.967 10.7736C116.944 10.8542 116.925 10.9567 116.908 11.079C116.92 11.329 116.869 11.5034 116.755 11.6017C116.649 11.6836 116.486 11.712 116.266 11.6897C116.125 11.6778 115.694 11.6718 114.973 11.6718C114.37 11.6718 113.906 11.7016 113.579 11.7598C113.354 11.7882 113.191 11.7761 113.09 11.7242C113.011 11.6602 112.969 11.5246 112.963 11.3145C112.963 11.2505 112.957 11.1717 112.946 11.0793C112.94 10.9912 112.935 10.9153 112.929 10.8513C112.929 10.7872 112.926 10.7409 112.92 10.7128C112.91 10.5728 112.934 10.4656 112.996 10.3897C113.064 10.3257 113.159 10.2901 113.283 10.2854C113.588 10.2854 113.954 10.2825 114.382 10.2765V10.2762ZM116.401 10.6769C116.311 10.6067 115.747 10.5815 114.712 10.598C113.912 10.598 113.469 10.6369 113.386 10.7128C113.374 10.7232 113.374 10.811 113.386 10.9735C113.401 11.1253 113.422 11.2102 113.445 11.2267C113.495 11.2746 113.619 11.2969 113.815 11.2969C114.013 11.2969 114.294 11.2908 114.66 11.2789C115.179 11.2627 115.579 11.2627 115.86 11.2789C116.142 11.3029 116.325 11.2746 116.409 11.1926C116.426 11.1627 116.435 11.0735 116.435 10.9214C116.435 10.7814 116.423 10.7012 116.4 10.6771L116.401 10.6769ZM116.631 15.0311C114.864 14.9671 113.68 14.9732 113.083 15.0491C112.92 15.061 112.793 15.0103 112.703 14.9002C112.63 14.7782 112.588 14.6038 112.577 14.3775C112.565 13.2427 112.565 12.6055 112.577 12.4653C112.594 12.3491 112.647 12.2628 112.737 12.2049C112.816 12.1513 112.923 12.1318 113.058 12.1437C113.188 12.166 113.602 12.166 114.3 12.1437C114.993 12.1081 115.809 12.1139 116.75 12.16C116.964 12.166 117.104 12.2078 117.172 12.2822C117.24 12.3462 117.266 12.4743 117.248 12.6664V13.9487C117.242 14.1005 117.246 14.2405 117.257 14.3685C117.257 14.6246 117.201 14.8048 117.088 14.9091C116.98 14.9908 116.829 15.0311 116.631 15.0311ZM113.021 13.7221C113.342 13.7624 113.987 13.7833 114.956 13.7833C115.919 13.7653 116.519 13.743 116.755 13.7132V13.3646H116.747C116.505 13.3125 115.875 13.2887 114.855 13.2945C113.919 13.2945 113.305 13.3186 113.012 13.3646C113.012 13.411 113.015 13.4689 113.021 13.5387V13.7219V13.7221ZM116.748 14.1675C116.506 14.1153 115.88 14.0915 114.872 14.0973C113.936 14.0973 113.326 14.1211 113.038 14.1675C113.05 14.3358 113.07 14.4354 113.097 14.4638C113.2 14.5635 113.794 14.6157 114.881 14.6217C115.962 14.6099 116.565 14.5545 116.689 14.4549C116.717 14.4207 116.737 14.3239 116.748 14.1675H116.748ZM113.022 12.9196C113.36 12.9596 113.998 12.9805 114.94 12.9805C115.903 12.9628 116.506 12.9405 116.748 12.9103C116.742 12.742 116.719 12.6452 116.68 12.6229C116.539 12.5186 115.916 12.4682 114.813 12.474C113.72 12.474 113.137 12.5204 113.064 12.6139C113.052 12.62 113.037 12.7211 113.022 12.9193L113.022 12.9196ZM114.019 15.7296C113.856 15.88 113.661 16.0318 113.436 16.1825C113.221 16.3001 113.025 16.3833 112.845 16.4357C112.562 16.4937 112.36 16.4879 112.236 16.4192C112.129 16.3375 112.095 16.2436 112.134 16.1393C112.18 16.0353 112.317 15.9562 112.549 15.9041C112.801 15.8519 113.093 15.7609 113.418 15.6329C113.655 15.5286 113.847 15.3826 113.994 15.1966C114.054 15.0983 114.119 15.0656 114.187 15.1012C114.249 15.1253 114.284 15.2026 114.29 15.3365C114.29 15.4527 114.199 15.5836 114.019 15.7296ZM115.59 15.1711C115.641 15.1189 115.706 15.1233 115.785 15.1876C115.981 15.3156 116.199 15.4376 116.435 15.5552C116.672 15.6535 116.902 15.7383 117.127 15.807C117.331 15.8189 117.449 15.898 117.482 16.0437C117.511 16.1718 117.478 16.294 117.381 16.4099C117.292 16.5081 117.171 16.538 117.017 16.4963C116.81 16.4441 116.559 16.2969 116.266 16.0527C115.984 15.825 115.773 15.6164 115.632 15.4243C115.554 15.3081 115.54 15.2235 115.59 15.1711H115.59ZM126.462 11.0265H127.307C127.559 11.0312 127.825 11.037 128.1 11.0431C128.321 11.0431 128.457 11.0668 128.514 11.1132C128.565 11.1592 128.581 11.2204 128.565 11.2963C128.554 11.3603 128.466 11.3988 128.303 11.4096C127.853 11.3933 127.452 11.3841 127.103 11.3841C126.788 11.3841 126.53 11.402 126.326 11.4362C126.134 11.4646 126.013 11.4391 125.963 11.3574C125.924 11.2708 125.937 11.192 126.004 11.1222C126.072 11.052 126.225 11.0208 126.462 11.0268V11.0265ZM126.589 11.8024C127.078 11.7848 127.751 11.7877 128.607 11.8114C129.007 11.8114 129.266 11.8488 129.385 11.9247C129.503 11.9887 129.582 12.0556 129.621 12.1255C129.656 12.1837 129.641 12.2819 129.579 12.4219C129.533 12.5201 129.491 12.669 129.453 12.8669C129.424 13.0532 129.37 13.2424 129.292 13.4342C129.246 13.5964 129.168 13.7068 129.054 13.7647C128.959 13.8065 128.841 13.8125 128.7 13.7827C128.306 13.6665 127.783 13.6144 127.129 13.6265C126.481 13.6265 126.022 13.6874 125.751 13.8096C125.656 13.8557 125.568 13.8557 125.49 13.8096C125.416 13.7575 125.357 13.6323 125.312 13.4342C125.2 12.8057 125.118 12.4366 125.067 12.3263C125.023 12.1744 125.019 12.0612 125.058 11.9852C125.109 11.9151 125.236 11.8752 125.439 11.8633C125.709 11.8453 126.092 11.8262 126.588 11.8021L126.589 11.8024ZM127.585 12.1866C127.573 12.2686 127.568 12.4621 127.568 12.7704C127.568 13.0624 127.574 13.2395 127.585 13.3035C127.922 13.3035 128.244 13.3154 128.548 13.3377C128.717 13.3438 128.821 13.3348 128.861 13.3125C128.894 13.2945 128.92 13.2574 128.936 13.1992C129.021 12.9193 129.069 12.6658 129.08 12.4395C129.08 12.3575 129.054 12.2967 129.004 12.2564C128.959 12.2208 128.827 12.2014 128.607 12.1953C128.241 12.1834 127.901 12.1805 127.585 12.1863V12.1866ZM127.112 13.2603C127.129 13.1902 127.134 13.0132 127.129 12.7272C127.129 12.4488 127.124 12.2729 127.112 12.2046C127.112 12.1927 127.109 12.1837 127.104 12.1776C126.501 12.1776 126.052 12.1985 125.76 12.2385C125.665 12.2503 125.603 12.2758 125.574 12.3176C125.564 12.346 125.555 12.401 125.549 12.4827C125.549 12.6809 125.582 12.9132 125.65 13.1812C125.668 13.2632 125.695 13.3183 125.735 13.3467C125.769 13.3585 125.851 13.3614 125.981 13.3556C126.369 13.3258 126.743 13.3093 127.104 13.3035C127.104 13.2916 127.107 13.2768 127.113 13.2603H127.112ZM126.25 12.8927C126.16 12.9344 126.058 12.9164 125.946 12.8405C125.901 12.7944 125.875 12.7362 125.871 12.6664C125.871 12.5963 125.912 12.5444 125.996 12.5102C126.098 12.4566 126.205 12.4552 126.318 12.5012C126.43 12.5473 126.545 12.5815 126.664 12.6055C126.766 12.6293 126.816 12.6664 126.816 12.7188C126.816 12.7487 126.776 12.7768 126.698 12.8066C126.501 12.8185 126.351 12.8469 126.25 12.8932V12.8927ZM128.312 12.5099C128.407 12.4459 128.519 12.4488 128.649 12.5189C128.7 12.5473 128.734 12.5995 128.751 12.6754C128.751 12.7394 128.717 12.7973 128.649 12.8495C128.56 12.9254 128.444 12.9492 128.303 12.9196C128.173 12.8854 128.037 12.8733 127.898 12.8854C127.801 12.8735 127.748 12.8437 127.736 12.7973C127.736 12.7513 127.771 12.7154 127.839 12.693C128.052 12.6409 128.211 12.5783 128.312 12.5099H128.312ZM125.853 11.201C125.183 11.5956 124.619 11.8725 124.163 12.029C123.983 12.0872 123.842 12.1049 123.741 12.0826C123.662 12.0528 123.588 11.9858 123.522 11.8815C123.475 11.7758 123.47 11.6955 123.505 11.6376C123.549 11.5854 123.662 11.5437 123.842 11.5153C124.039 11.4976 124.355 11.402 124.789 11.2265C125.222 11.0581 125.676 10.8376 126.149 10.5636C126.622 10.2895 126.912 10.087 127.018 9.95312C127.086 9.85345 127.157 9.8042 127.23 9.8042C127.298 9.8042 127.351 9.82796 127.39 9.87431C127.402 9.88619 127.413 9.90705 127.425 9.93515C127.52 10.0111 127.709 10.1301 127.99 10.2927C128.43 10.5488 128.965 10.7901 129.595 11.0179C130.221 11.2323 130.694 11.3484 131.015 11.3664C131.269 11.3664 131.35 11.4185 131.261 11.524C131.181 11.6222 131.015 11.7413 130.762 11.8815C130.531 11.9977 130.315 11.9919 130.111 11.8639C129.193 11.3232 128.545 10.9567 128.167 10.7649C127.801 10.5786 127.543 10.4685 127.39 10.4326C127.295 10.3984 127.198 10.3805 127.103 10.3805C126.838 10.5783 126.421 10.851 125.853 11.201ZM126.867 14.0794L128.345 14.0632C128.565 14.0692 128.734 14.1124 128.852 14.1941C128.965 14.2686 129.007 14.3966 128.979 14.5768C128.939 14.9329 128.92 15.3243 128.92 15.7549C128.932 16.0049 128.88 16.1793 128.767 16.279C128.661 16.361 128.498 16.3894 128.277 16.3656H127.34C126.906 16.3552 126.572 16.3775 126.335 16.4357C126.109 16.4655 125.946 16.4534 125.845 16.4015C125.766 16.3375 125.724 16.2004 125.718 15.9918C125.718 15.8342 125.712 15.6419 125.701 15.4156C125.691 14.9793 125.682 14.68 125.676 14.5163C125.665 14.3778 125.689 14.2689 125.751 14.1947C125.819 14.1307 125.916 14.0947 126.04 14.0889C126.27 14.0889 126.546 14.0857 126.868 14.08L126.867 14.0794ZM126.09 14.952C126.292 14.9758 126.717 14.9906 127.366 14.9966C127.957 14.9848 128.333 14.9697 128.498 14.952C128.492 14.6794 128.463 14.5215 128.413 14.4815C128.351 14.4294 127.926 14.4114 127.137 14.4294C126.534 14.4294 126.202 14.4578 126.14 14.516C126.111 14.5458 126.096 14.6901 126.09 14.9523V14.952ZM127.307 15.3275C126.669 15.3275 126.267 15.3452 126.098 15.3797C126.126 15.6879 126.16 15.8635 126.199 15.9038C126.233 15.9322 126.326 15.9498 126.478 15.9559C126.625 15.9559 126.835 15.9498 127.112 15.9382C127.5 15.9217 127.798 15.9217 128.008 15.9382C128.211 15.9501 128.348 15.9278 128.422 15.8696C128.472 15.8056 128.501 15.6416 128.507 15.3797C128.36 15.3455 127.96 15.3275 127.307 15.3275H127.307Z" fill="#332C2B"/>
<path d="M34.304 40.1414V35.9839H34.8381V40.1414H34.304ZM35.7086 40.1414V37.1277H36.1527V37.5892C36.266 37.3754 36.3712 37.2343 36.4677 37.1665C36.5642 37.0979 36.6703 37.064 36.7853 37.064C36.9522 37.064 37.1217 37.1182 37.2942 37.2256L37.118 37.697C36.9982 37.6275 36.8782 37.5924 36.7581 37.5924C36.6504 37.5924 36.5539 37.6263 36.4686 37.6933C36.3833 37.7599 36.3224 37.8529 36.2857 37.972C36.2304 38.1531 36.2032 38.3512 36.2032 38.5671V40.1417H35.7083L35.7086 40.1414ZM37.5809 40.1414V37.1277H38.025V37.5892C38.1383 37.3754 38.2435 37.2343 38.34 37.1665C38.4365 37.0979 38.5426 37.064 38.6576 37.064C38.8245 37.064 38.994 37.1182 39.1665 37.2256L38.9903 37.697C38.8705 37.6275 38.7505 37.5924 38.6304 37.5924C38.5227 37.5924 38.4262 37.6263 38.3409 37.6933C38.2556 37.7599 38.1947 37.8529 38.158 37.972C38.1027 38.1531 38.0755 38.3512 38.0755 38.5671V40.1417H37.5806L37.5809 40.1414ZM39.4588 36.5645V35.9839H39.9537V36.5645H39.4588ZM39.4588 40.1414V37.1277H39.9537V40.1414H39.4588ZM40.6171 40.3912L41.0952 40.4607C41.1148 40.6137 41.1709 40.7249 41.2629 40.7956C41.3855 40.8895 41.5536 40.937 41.7662 40.937C41.9949 40.937 42.1719 40.8898 42.2967 40.7956C42.4213 40.7018 42.5057 40.5691 42.5498 40.3999C42.5753 40.2964 42.5873 40.0786 42.5854 39.7465C42.3688 40.0099 42.1001 40.1414 41.7774 40.1414C41.3766 40.1414 41.0654 39.9925 40.8461 39.6935C40.6258 39.3954 40.5161 39.0373 40.5161 38.6204C40.5161 38.333 40.5669 38.0676 40.6671 37.8248C40.7672 37.582 40.9134 37.3951 41.1047 37.2624C41.296 37.1297 41.5208 37.064 41.7794 37.064C42.1233 37.064 42.4072 37.2091 42.6303 37.4994V37.128H43.0856V39.7303C43.0856 40.1997 43.0399 40.5317 42.947 40.727C42.8553 40.9225 42.708 41.0772 42.5085 41.1905C42.3079 41.3038 42.0616 41.3609 41.769 41.3609C41.4214 41.3609 41.1412 41.2806 40.9277 41.119C40.7131 40.9582 40.6098 40.7154 40.6174 40.3912H40.6171ZM41.022 38.5833C41.022 38.977 41.0977 39.2644 41.2498 39.4455C41.4024 39.6266 41.5926 39.7176 41.8212 39.7176C42.049 39.7176 42.2392 39.6278 42.3938 39.4475C42.5475 39.2676 42.6244 38.9849 42.6244 38.5998C42.6244 38.2319 42.5447 37.9543 42.3865 37.7674C42.228 37.5806 42.0369 37.4876 41.8139 37.4876C41.5937 37.4876 41.4071 37.5794 41.2526 37.7634C41.0988 37.9473 41.022 38.2203 41.022 38.583V38.5833ZM45.7411 39.7639C45.5574 39.9256 45.3804 40.0389 45.2106 40.1058C45.0409 40.1724 44.8591 40.2055 44.6642 40.2055C44.3438 40.2055 44.0972 40.1252 43.9249 39.9635C43.7524 39.8027 43.6663 39.5967 43.6663 39.3461C43.6663 39.199 43.6991 39.0645 43.7636 38.9426C43.8293 38.8206 43.9146 38.7238 44.0195 38.6502C44.1252 38.5769 44.2436 38.5207 44.3755 38.4828C44.4728 38.4567 44.6201 38.4315 44.8159 38.4063C45.2151 38.3579 45.5103 38.2988 45.6988 38.231C45.7005 38.1615 45.7016 38.1168 45.7016 38.0983C45.7016 37.8911 45.6547 37.7451 45.561 37.6599C45.4345 37.5449 45.2463 37.4876 44.9969 37.4876C44.7635 37.4876 44.5912 37.5301 44.4804 37.6142C44.369 37.6985 44.2874 37.8474 44.2338 38.0621L43.7502 37.9925C43.7942 37.7787 43.8663 37.6055 43.9676 37.4736C44.0689 37.3421 44.215 37.2413 44.4061 37.1697C44.5963 37.0993 44.8185 37.0634 45.0695 37.0634C45.3189 37.0634 45.522 37.0935 45.6786 37.1544C45.8343 37.2152 45.9496 37.2908 46.0225 37.383C46.0957 37.4748 46.1471 37.591 46.1771 37.7312C46.1931 37.8181 46.2015 37.9752 46.2015 38.2006V38.8779C46.2015 39.3511 46.2116 39.6503 46.2324 39.777C46.252 39.9036 46.2932 40.025 46.3533 40.1409H45.836C45.7863 40.0334 45.7546 39.9076 45.7406 39.7633L45.7411 39.7639ZM45.7019 38.6317C45.5218 38.707 45.2522 38.771 44.8922 38.8235C44.688 38.8533 44.5438 38.8872 44.4594 38.9249C44.3752 38.9625 44.3104 39.0176 44.2644 39.0894C44.2187 39.1622 44.1951 39.2424 44.1951 39.3317C44.1951 39.4661 44.2448 39.5794 44.3449 39.6692C44.4451 39.7593 44.5915 39.8048 44.7834 39.8048C44.9736 39.8048 45.1433 39.7622 45.2923 39.6761C45.4404 39.591 45.5501 39.4739 45.6194 39.3259C45.6727 39.2105 45.6991 39.0411 45.6991 38.8177L45.7019 38.6317ZM48.0362 39.6854L48.1035 40.1365C47.9649 40.1666 47.8404 40.182 47.7315 40.182C47.5526 40.182 47.4137 40.153 47.3144 40.0939C47.2162 40.0351 47.1466 39.9583 47.1065 39.8627C47.0661 39.7668 47.0465 39.5655 47.0465 39.2586V37.5223H46.6809V37.1277H47.0465V36.3825L47.5413 36.0757V37.1277H48.0362V37.5223H47.5413V39.2876C47.5413 39.4336 47.5498 39.5278 47.5677 39.5695C47.5845 39.6109 47.6126 39.644 47.6519 39.6692C47.6911 39.6935 47.7473 39.706 47.8205 39.706C47.8746 39.706 47.947 39.6993 48.0359 39.6857L48.0362 39.6854ZM48.5246 36.5642V35.9836H49.0195V36.5642H48.5246ZM48.5246 40.1411V37.1274H49.0195V40.1411H48.5246ZM49.5881 38.6343C49.5881 38.0777 49.7379 37.6654 50.039 37.3975C50.2892 37.1747 50.5955 37.0634 50.9563 37.0634C51.3564 37.0634 51.6843 37.199 51.9393 37.4699C52.1935 37.7399 52.3206 38.1145 52.3206 38.5917C52.3206 38.9788 52.2644 39.2827 52.152 39.5043C52.0395 39.726 51.8753 39.8981 51.6599 40.0212C51.4453 40.144 51.2102 40.2052 50.956 40.2052C50.5476 40.2052 50.2177 40.0707 49.9657 39.8007C49.7135 39.5307 49.5881 39.1419 49.5881 38.6346V38.6343ZM50.0942 38.6352C50.0942 39.0202 50.1756 39.3088 50.3388 39.4994C50.503 39.6912 50.708 39.7871 50.9563 39.7871C51.2021 39.7871 51.406 39.6912 51.5701 39.4985C51.7331 39.3059 51.8147 39.0127 51.8147 38.6186C51.8147 38.2472 51.7323 37.9656 51.5684 37.7747C51.4043 37.5829 51.2001 37.4873 50.9563 37.4873C50.708 37.4873 50.5027 37.582 50.3388 37.7729C50.1759 37.9636 50.0942 38.251 50.0942 38.6352ZM52.901 40.1411V37.1274H53.3451V37.5551C53.5588 37.2268 53.868 37.0634 54.272 37.0634C54.4481 37.0634 54.6095 37.0964 54.7565 37.161C54.9035 37.2259 55.014 37.312 55.0872 37.4177C55.1601 37.5232 55.2118 37.6489 55.2409 37.7941C55.2586 37.8888 55.2682 38.0545 55.2682 38.2907V40.1411H54.7733V38.3101C54.7733 38.1021 54.7545 37.9462 54.7161 37.8436C54.6776 37.7411 54.6092 37.6588 54.5118 37.5968C54.4145 37.5359 54.2992 37.5049 54.1682 37.5049C53.958 37.5049 53.7774 37.5736 53.6245 37.7121C53.4719 37.8494 53.3959 38.1119 53.3959 38.497V40.1411H52.901ZM57.5253 40.1411L59.0697 35.9836H59.6555L61.2943 40.1411H60.6878L60.2221 38.8811H58.5269L58.0901 40.1411H57.5251H57.5253ZM58.6837 38.4341H60.0555L59.6358 37.2813C59.5093 36.931 59.4136 36.6416 59.3471 36.4133C59.2919 36.6841 59.2178 36.9504 59.125 37.2138L58.6837 38.4341ZM61.5642 40.3909L62.0423 40.4604C62.0619 40.6134 62.118 40.7246 62.21 40.7953C62.3326 40.8892 62.5007 40.9367 62.7133 40.9367C62.9419 40.9367 63.119 40.8895 63.2438 40.7953C63.3684 40.7015 63.4528 40.5688 63.4968 40.3996C63.5224 40.2961 63.5344 40.0783 63.5325 39.7462C63.3159 40.0096 63.0471 40.1411 62.7245 40.1411C62.3236 40.1411 62.0125 39.9922 61.7931 39.6932C61.5729 39.3951 61.4632 39.037 61.4632 38.6201C61.4632 38.3327 61.514 38.0673 61.6142 37.8245C61.7143 37.5817 61.8605 37.3948 62.0518 37.2622C62.2431 37.1295 62.4678 37.0637 62.7265 37.0637C63.0704 37.0637 63.3543 37.2088 63.5774 37.4991V37.1277H64.0327V39.73C64.0327 40.1994 63.9869 40.5314 63.8941 40.7267C63.8023 40.9222 63.6551 41.077 63.4556 41.1902C63.255 41.3035 63.0087 41.3606 62.7161 41.3606C62.3685 41.3606 62.0883 41.2803 61.8748 41.1187C61.6602 40.9579 61.5569 40.7151 61.5645 40.3909H61.5642ZM61.969 38.583C61.969 38.9767 62.0448 39.2641 62.1968 39.4452C62.3495 39.6263 62.5396 39.7173 62.7683 39.7173C62.9961 39.7173 63.1863 39.6275 63.3409 39.4473C63.4946 39.2673 63.5715 38.9846 63.5715 38.5995C63.5715 38.2316 63.4918 37.954 63.3336 37.7671C63.1751 37.5803 62.984 37.4873 62.761 37.4873C62.5408 37.4873 62.3542 37.5791 62.1996 37.7631C62.0459 37.9471 61.969 38.22 61.969 38.5827V38.583ZM66.7727 39.1656L67.2844 39.2352C67.2047 39.542 67.0557 39.781 66.8383 39.9505C66.6209 40.12 66.3434 40.2049 66.0051 40.2049C65.5798 40.2049 65.2423 40.0693 64.9929 39.7984C64.7438 39.5281 64.6193 39.148 64.6193 38.6592C64.6193 38.1539 64.7447 37.7611 64.9969 37.4823C65.2491 37.2028 65.5759 37.0634 65.9779 37.0634C66.3667 37.0634 66.6843 37.1999 66.9309 37.4736C67.1775 37.7477 67.3009 38.1328 67.3009 38.6294C67.3009 38.6595 67.3001 38.7047 67.2981 38.765H65.1251C65.1439 39.0949 65.2336 39.3487 65.3969 39.5237C65.5591 39.699 65.7622 39.7871 66.0051 39.7871C66.1861 39.7871 66.3406 39.7376 66.468 39.639C66.5965 39.5405 66.6978 39.3826 66.7727 39.1659V39.1656ZM65.1534 38.3469H66.7783C66.7567 38.0931 66.6941 37.9036 66.5917 37.7767C66.4352 37.5803 66.2309 37.4815 65.9807 37.4815C65.7538 37.4815 65.5638 37.5597 65.409 37.7167C65.2552 37.8735 65.17 38.0835 65.1531 38.3469H65.1534ZM67.9097 40.1411V37.1274H68.3538V37.5551C68.5675 37.2268 68.8767 37.0634 69.2807 37.0634C69.4568 37.0634 69.6181 37.0964 69.7651 37.161C69.9121 37.2259 70.0227 37.312 70.0959 37.4177C70.1688 37.5232 70.2205 37.6489 70.2496 37.7941C70.2673 37.8888 70.2768 38.0545 70.2768 38.2907V40.1411H69.782V38.3101C69.782 38.1021 69.7632 37.9462 69.7247 37.8436C69.6863 37.7411 69.6179 37.6588 69.5205 37.5968C69.4232 37.5359 69.3079 37.5049 69.1769 37.5049C68.9667 37.5049 68.7861 37.5736 68.6332 37.7121C68.4806 37.8494 68.4045 38.1119 68.4045 38.497V40.1411H67.9097ZM72.9428 39.0379L73.4264 39.1077C73.3731 39.451 73.2379 39.7193 73.0196 39.914C72.8014 40.1087 72.5324 40.2052 72.2148 40.2052C71.8164 40.2052 71.4961 40.0707 71.2542 39.8016C71.0113 39.5324 70.8907 39.1474 70.8907 38.6459C70.8907 38.3205 70.9431 38.0372 71.0472 37.7932C71.1513 37.5501 71.3098 37.3673 71.5233 37.2462C71.7359 37.1242 71.9674 37.0634 72.2184 37.0634C72.5343 37.0634 72.7938 37.1457 72.9944 37.3114C73.1958 37.4768 73.3251 37.7121 73.3815 38.0157L72.9035 38.0913C72.8575 37.8891 72.777 37.737 72.6597 37.6344C72.5436 37.533 72.4027 37.4815 72.2381 37.4815C71.9887 37.4815 71.7864 37.5733 71.6299 37.7573C71.4742 37.9421 71.3965 38.2324 71.3965 38.6314C71.3965 39.0358 71.4714 39.329 71.6215 39.5121C71.7724 39.695 71.9682 39.7871 72.2092 39.7871C72.4041 39.7871 72.566 39.726 72.6956 39.6031C72.8258 39.4811 72.9083 39.2925 72.9431 39.0379H72.9428ZM73.8253 41.2998L73.7692 40.8275C73.8778 40.8576 73.9718 40.873 74.0523 40.873C74.1628 40.873 74.2509 40.8536 74.3166 40.8159C74.3831 40.7782 74.4375 40.7249 74.4796 40.6571C74.5104 40.6059 74.5609 40.479 74.6305 40.2759C74.64 40.2478 74.6541 40.2063 74.6745 40.151L73.5667 37.1277H74.0952L74.7043 38.8678C74.7839 39.0877 74.8541 39.3198 74.9169 39.5637C74.9741 39.3343 75.0415 39.108 75.1203 38.8852L75.7425 37.1277H76.2363L75.1332 40.1936C75.0143 40.5236 74.9214 40.7501 74.8549 40.875C74.7668 41.0425 74.6656 41.1653 74.5522 41.2435C74.438 41.3221 74.302 41.3606 74.1446 41.3606C74.0489 41.3606 73.9421 41.3403 73.8248 41.2998H73.8253ZM76.3715 40.1411V39.5605H76.934V40.1411C76.934 40.3553 76.8972 40.5282 76.8234 40.66C76.7502 40.7916 76.6332 40.8941 76.473 40.9657L76.3381 40.7449C76.443 40.6977 76.5199 40.6279 76.5687 40.5369C76.6184 40.4451 76.6464 40.3132 76.652 40.1411H76.3718H76.3715ZM82.9206 38.6827L83.4548 38.822C83.3434 39.274 83.1428 39.6176 82.8533 39.8546C82.5638 40.0919 82.2095 40.2107 81.7906 40.2107C81.3577 40.2107 81.0054 40.1197 80.7336 39.9369C80.4617 39.7549 80.2555 39.4907 80.1141 39.1454C79.9727 38.7989 79.9012 38.4283 79.9012 38.0314C79.9012 37.5988 79.9809 37.2213 80.1413 36.8991C80.3015 36.577 80.5293 36.3318 80.8244 36.1647C81.1199 35.9972 81.445 35.9141 81.799 35.9141C82.2019 35.9141 82.5402 36.0195 82.814 36.2313C83.0884 36.4434 83.2797 36.7404 83.3874 37.1237L82.8645 37.2514C82.7717 36.9492 82.6359 36.7288 82.4589 36.5914C82.2818 36.453 82.0588 36.3843 81.7898 36.3843C81.4815 36.3843 81.2228 36.4608 81.0158 36.6137C80.8087 36.7667 80.6626 36.973 80.579 37.2303C80.4948 37.4887 80.4525 37.755 80.4525 38.0288C80.4525 38.3819 80.5018 38.6905 80.6014 38.9539C80.7007 39.2181 80.8556 39.4145 81.0654 39.5452C81.2755 39.6758 81.5022 39.7407 81.7466 39.7407C82.0448 39.7407 82.2959 39.6518 82.5018 39.4748C82.708 39.2966 82.8477 39.0335 82.9206 38.6832V38.6827ZM83.8663 38.6343C83.8663 38.0777 84.0161 37.6654 84.3171 37.3975C84.5674 37.1747 84.8737 37.0634 85.2345 37.0634C85.6345 37.0634 85.9625 37.199 86.2175 37.4699C86.4716 37.7399 86.5987 38.1145 86.5987 38.5917C86.5987 38.9788 86.5426 39.2827 86.4301 39.5043C86.3176 39.726 86.1535 39.8981 85.9381 40.0212C85.7235 40.144 85.4884 40.2052 85.2342 40.2052C84.8257 40.2052 84.4958 40.0707 84.2439 39.8007C83.9917 39.5307 83.8663 39.1419 83.8663 38.6346V38.6343ZM84.3724 38.6352C84.3724 39.0202 84.4537 39.3088 84.617 39.4994C84.7811 39.6912 84.9862 39.7871 85.2345 39.7871C85.4802 39.7871 85.6842 39.6912 85.8483 39.4985C86.0113 39.3059 86.0929 39.0127 86.0929 38.6186C86.0929 38.2472 86.0104 37.9656 85.8466 37.7747C85.6825 37.5829 85.4783 37.4873 85.2345 37.4873C84.9862 37.4873 84.7808 37.582 84.617 37.7729C84.454 37.9636 84.3724 38.251 84.3724 38.6352ZM89.0851 40.1411V39.6932C88.8582 40.0348 88.551 40.2052 88.1619 40.2052C87.9905 40.2052 87.8303 40.1713 87.681 40.1038C87.5321 40.0351 87.4215 39.9499 87.3494 39.8471C87.2773 39.7436 87.2268 39.6179 87.1977 39.4687C87.178 39.3679 87.1679 39.2091 87.1679 38.9927V37.1277H87.6628V38.7951C87.6628 39.0613 87.6729 39.2413 87.6925 39.3331C87.7237 39.4675 87.789 39.5724 87.8903 39.6486C87.9905 39.7251 88.1142 39.7636 88.2623 39.7636C88.4104 39.7636 88.549 39.7251 88.6783 39.6466C88.8077 39.5681 88.8997 39.4606 88.9538 39.3261C89.0074 39.1917 89.0346 38.9953 89.0346 38.7386V37.1274H89.5295V40.1411H89.0854H89.0851ZM90.3063 40.1411V37.1274H90.7504V37.5551C90.9641 37.2268 91.2733 37.0634 91.6773 37.0634C91.8535 37.0634 92.0148 37.0964 92.1618 37.161C92.3088 37.2259 92.4193 37.312 92.4925 37.4177C92.5655 37.5232 92.6171 37.6489 92.6462 37.7941C92.6639 37.8888 92.6735 38.0545 92.6735 38.2907V40.1411H92.1786V38.3101C92.1786 38.1021 92.1598 37.9462 92.1214 37.8436C92.0829 37.7411 92.0145 37.6588 91.9171 37.5968C91.8198 37.5359 91.7045 37.5049 91.5735 37.5049C91.3634 37.5049 91.1827 37.5736 91.0298 37.7121C90.8772 37.8494 90.8012 38.1119 90.8012 38.497V40.1411H90.3063ZM95.3394 39.0379L95.823 39.1077C95.7697 39.451 95.6345 39.7193 95.4163 39.914C95.198 40.1087 94.929 40.2052 94.6114 40.2052C94.213 40.2052 93.8927 40.0707 93.6508 39.8016C93.4079 39.5324 93.2873 39.1474 93.2873 38.6459C93.2873 38.3205 93.3397 38.0372 93.4438 37.7932C93.5479 37.5501 93.7064 37.3673 93.9199 37.2462C94.1325 37.1242 94.364 37.0634 94.615 37.0634C94.9309 37.0634 95.1904 37.1457 95.391 37.3114C95.5924 37.4768 95.7218 37.7121 95.7782 38.0157L95.3001 38.0913C95.2541 37.8891 95.1736 37.737 95.0563 37.6344C94.9402 37.533 94.7994 37.4815 94.6347 37.4815C94.3853 37.4815 94.183 37.5733 94.0265 37.7573C93.8708 37.9421 93.7931 38.2324 93.7931 38.6314C93.7931 39.0358 93.868 39.329 94.0181 39.5121C94.169 39.695 94.3648 39.7871 94.6058 39.7871C94.8008 39.7871 94.9626 39.726 95.0922 39.6031C95.2224 39.4811 95.3049 39.2925 95.3397 39.0379H95.3394ZM96.2447 36.5642V35.9836H96.7395V36.5642H96.2447ZM96.2447 40.1411V37.1274H96.7395V40.1411H96.2447ZM97.4827 40.1411V35.9836H97.9776V40.1411H97.4827ZM100.744 38.6343C100.744 38.0777 100.894 37.6654 101.195 37.3975C101.446 37.1747 101.752 37.0634 102.113 37.0634C102.513 37.0634 102.841 37.199 103.096 37.4699C103.35 37.7399 103.477 38.1145 103.477 38.5917C103.477 38.9788 103.421 39.2827 103.308 39.5043C103.196 39.726 103.032 39.8981 102.816 40.0212C102.602 40.144 102.367 40.2052 102.112 40.2052C101.704 40.2052 101.374 40.0707 101.122 39.8007C100.87 39.5307 100.744 39.1419 100.744 38.6346V38.6343ZM101.251 38.6352C101.251 39.0202 101.332 39.3088 101.495 39.4994C101.659 39.6912 101.864 39.7871 102.113 39.7871C102.358 39.7871 102.562 39.6912 102.726 39.4985C102.889 39.3059 102.971 39.0127 102.971 38.6186C102.971 38.2472 102.889 37.9656 102.725 37.7747C102.561 37.5829 102.356 37.4873 102.113 37.4873C101.864 37.4873 101.659 37.582 101.495 37.7729C101.332 37.9636 101.251 38.251 101.251 38.6352ZM104.175 40.1411V37.5223H103.737V37.1277H104.175V36.8082C104.175 36.6059 104.192 36.4558 104.227 36.3582C104.275 36.2267 104.357 36.1192 104.477 36.0369C104.596 35.9546 104.764 35.9141 104.98 35.9141C105.119 35.9141 105.273 35.9314 105.442 35.9651L105.368 36.4121C105.265 36.3938 105.168 36.384 105.076 36.384C104.926 36.384 104.82 36.417 104.758 36.4828C104.696 36.5486 104.665 36.6717 104.665 36.8513V37.1274H105.233V37.522H104.671V40.1409H104.176L104.175 40.1411ZM107.117 40.1411L108.661 35.9836H109.247L110.886 40.1411H110.279L109.814 38.8811H108.118L107.682 40.1411H107.117H107.117ZM108.275 38.4341H109.647L109.227 37.2813C109.101 36.931 109.005 36.6416 108.939 36.4133C108.883 36.6841 108.809 36.9504 108.716 37.2138L108.275 38.4341ZM111.156 40.3909L111.634 40.4604C111.653 40.6134 111.71 40.7246 111.802 40.7953C111.924 40.8892 112.092 40.9367 112.305 40.9367C112.533 40.9367 112.71 40.8895 112.835 40.7953C112.96 40.7015 113.044 40.5688 113.088 40.3996C113.114 40.2961 113.126 40.0783 113.124 39.7462C112.907 40.0096 112.639 40.1411 112.316 40.1411C111.915 40.1411 111.604 39.9922 111.385 39.6932C111.164 39.3951 111.055 39.037 111.055 38.6201C111.055 38.3327 111.106 38.0673 111.206 37.8245C111.306 37.5817 111.452 37.3948 111.643 37.2622C111.835 37.1295 112.059 37.0637 112.318 37.0637C112.662 37.0637 112.946 37.2088 113.169 37.4991V37.1277H113.624V39.73C113.624 40.1994 113.578 40.5314 113.486 40.7267C113.394 40.9222 113.247 41.077 113.047 41.1902C112.847 41.3035 112.6 41.3606 112.308 41.3606C111.96 41.3606 111.68 41.2803 111.466 41.1187C111.252 40.9579 111.148 40.7151 111.156 40.3909H111.156ZM111.561 38.583C111.561 38.9767 111.636 39.2641 111.788 39.4452C111.941 39.6263 112.131 39.7173 112.36 39.7173C112.588 39.7173 112.778 39.6275 112.932 39.4473C113.086 39.2673 113.163 38.9846 113.163 38.5995C113.163 38.2316 113.083 37.954 112.925 37.7671C112.767 37.5803 112.576 37.4873 112.353 37.4873C112.132 37.4873 111.946 37.5791 111.791 37.7631C111.637 37.9471 111.561 38.22 111.561 38.5827V38.583ZM114.368 40.1411V37.1274H114.812V37.589C114.926 37.3751 115.031 37.234 115.127 37.1663C115.224 37.0976 115.33 37.0637 115.445 37.0637C115.612 37.0637 115.781 37.1179 115.954 37.2254L115.778 37.6967C115.658 37.6272 115.538 37.5921 115.418 37.5921C115.31 37.5921 115.213 37.626 115.128 37.693C115.043 37.7596 114.982 37.8526 114.945 37.9717C114.89 38.1528 114.863 38.3509 114.863 38.5668V40.1414H114.368L114.368 40.1411ZM116.246 36.5642V35.9836H116.741V36.5642H116.246ZM116.246 40.1411V37.1274H116.741V40.1411H116.246ZM119.401 39.0379L119.885 39.1077C119.832 39.451 119.696 39.7193 119.478 39.914C119.26 40.1087 118.991 40.2052 118.673 40.2052C118.275 40.2052 117.955 40.0707 117.713 39.8016C117.47 39.5324 117.349 39.1474 117.349 38.6459C117.349 38.3205 117.402 38.0372 117.506 37.7932C117.61 37.5501 117.768 37.3673 117.982 37.2462C118.194 37.1242 118.426 37.0634 118.677 37.0634C118.993 37.0634 119.252 37.1457 119.453 37.3114C119.654 37.4768 119.784 37.7121 119.84 38.0157L119.362 38.0913C119.316 37.8891 119.235 37.737 119.118 37.6344C119.002 37.533 118.861 37.4815 118.697 37.4815C118.447 37.4815 118.245 37.5733 118.088 37.7573C117.933 37.9421 117.855 38.2324 117.855 38.6314C117.855 39.0358 117.93 39.329 118.08 39.5121C118.231 39.695 118.427 39.7871 118.668 39.7871C118.863 39.7871 119.025 39.726 119.154 39.6031C119.284 39.4811 119.367 39.2925 119.402 39.0379H119.401ZM122.213 40.1411V39.6932C121.986 40.0348 121.678 40.2052 121.289 40.2052C121.118 40.2052 120.958 40.1713 120.808 40.1038C120.659 40.0351 120.549 39.9499 120.477 39.8471C120.405 39.7436 120.354 39.6179 120.325 39.4687C120.305 39.3679 120.295 39.2091 120.295 38.9927V37.1277H120.79V38.7951C120.79 39.0613 120.8 39.2413 120.82 39.3331C120.851 39.4675 120.916 39.5724 121.018 39.6486C121.118 39.7251 121.242 39.7636 121.39 39.7636C121.538 39.7636 121.676 39.7251 121.806 39.6466C121.935 39.5681 122.027 39.4606 122.081 39.3261C122.135 39.1917 122.162 38.9953 122.162 38.7386V37.1274H122.657V40.1411H122.213H122.213ZM123.422 40.1411V35.9836H123.917V40.1411H123.422ZM125.757 39.6854L125.824 40.1365C125.686 40.1666 125.561 40.182 125.452 40.182C125.273 40.182 125.134 40.153 125.035 40.0939C124.937 40.0351 124.867 39.9583 124.827 39.8627C124.787 39.7668 124.767 39.5655 124.767 39.2586V37.5223H124.402V37.1277H124.767V36.3825L125.262 36.0757V37.1277H125.757V37.5223H125.262V39.2876C125.262 39.4336 125.27 39.5278 125.288 39.5695C125.305 39.6109 125.333 39.644 125.372 39.6692C125.412 39.6935 125.468 39.706 125.541 39.706C125.595 39.706 125.668 39.6993 125.757 39.6857L125.757 39.6854ZM128.151 40.1411V39.6932C127.924 40.0348 127.617 40.2052 127.228 40.2052C127.057 40.2052 126.896 40.1713 126.747 40.1038C126.598 40.0351 126.488 39.9499 126.416 39.8471C126.343 39.7436 126.293 39.6179 126.264 39.4687C126.244 39.3679 126.234 39.2091 126.234 38.9927V37.1277H126.729V38.7951C126.729 39.0613 126.739 39.2413 126.759 39.3331C126.79 39.4675 126.855 39.5724 126.956 39.6486C127.057 39.7251 127.18 39.7636 127.328 39.7636C127.477 39.7636 127.615 39.7251 127.744 39.6466C127.874 39.5681 127.966 39.4606 128.02 39.3261C128.073 39.1917 128.101 38.9953 128.101 38.7386V37.1274H128.596V40.1411H128.151H128.151ZM129.367 40.1411V37.1274H129.811V37.589C129.924 37.3751 130.029 37.234 130.126 37.1663C130.222 37.0976 130.328 37.0637 130.443 37.0637C130.61 37.0637 130.78 37.1179 130.952 37.2254L130.776 37.6967C130.656 37.6272 130.536 37.5921 130.416 37.5921C130.309 37.5921 130.212 37.626 130.127 37.693C130.041 37.7596 129.981 37.8526 129.944 37.9717C129.889 38.1528 129.861 38.3509 129.861 38.5668V40.1414H129.366L129.367 40.1411ZM133.235 39.1656L133.747 39.2352C133.667 39.542 133.518 39.781 133.301 39.9505C133.083 40.12 132.806 40.2049 132.468 40.2049C132.042 40.2049 131.705 40.0693 131.455 39.7984C131.206 39.5281 131.082 39.148 131.082 38.6592C131.082 38.1539 131.207 37.7611 131.459 37.4823C131.711 37.2028 132.038 37.0634 132.44 37.0634C132.829 37.0634 133.147 37.1999 133.393 37.4736C133.64 37.7477 133.763 38.1328 133.763 38.6294C133.763 38.6595 133.762 38.7047 133.761 38.765H131.587C131.606 39.0949 131.696 39.3487 131.859 39.5237C132.021 39.699 132.225 39.7871 132.468 39.7871C132.648 39.7871 132.803 39.7376 132.93 39.639C133.059 39.5405 133.16 39.3826 133.235 39.1659V39.1656ZM131.616 38.3469H133.241C133.219 38.0931 133.157 37.9036 133.054 37.7767C132.898 37.5803 132.693 37.4815 132.443 37.4815C132.216 37.4815 132.026 37.5597 131.871 37.7167C131.718 37.8735 131.632 38.0835 131.616 38.3469H131.616Z" fill="#8B8B8C"/>
<path d="M18.4951 37.0858C18.2631 37.0377 17.9382 37.0377 17.6134 37.134C16.9174 37.2784 16.175 37.6636 15.5718 38.0488C15.6182 38.2414 15.7574 38.434 15.9894 38.5303C16.2214 38.6266 16.4998 38.6748 16.9174 38.6748C17.103 38.6748 17.2886 38.6266 17.4742 38.5303C17.6598 38.4822 17.8454 38.3859 18.031 38.2896C18.2166 38.1933 18.4023 38.0488 18.5415 37.9044C18.7271 37.7599 18.8663 37.6155 19.0055 37.471C18.9127 37.2784 18.7271 37.134 18.4951 37.0858Z" fill="url(#paint0_linear_20_1473)"/>
<path d="M21.9288 29.4299C21.7432 29.5262 21.5112 29.7188 21.3256 30.0077C21.14 30.2484 21.0008 30.5373 20.8616 30.8262C21.0008 30.2484 21.0936 29.6706 21.0936 29.141C21.2328 29.1891 21.4184 29.141 21.5576 29.0447C21.7432 28.9484 21.9288 28.7558 22.068 28.4669C22.3464 27.8891 22.4856 27.1187 22.3 26.3964C22.1144 26.3964 21.9752 26.4446 21.7896 26.589C21.6504 26.7335 21.5112 26.9742 21.372 27.215C21.2328 27.5039 21.14 27.8409 21.0936 28.178C21.0936 27.7928 21.0472 27.4076 21.0472 27.0224C21.0008 26.7816 21.0008 26.5409 20.9544 26.3483C21.2792 26.3483 21.604 26.1075 21.7432 25.5297C21.8824 24.9519 21.836 24.1815 21.5112 23.5556C21.3256 23.5556 21.1864 23.7 21.0936 23.8445C21.0472 23.9408 21.0008 24.0371 20.9544 24.1334C20.9544 24.1815 20.908 24.2297 20.908 24.326C20.908 24.3741 20.8616 24.4704 20.8616 24.5186C20.8152 24.663 20.8152 24.8075 20.8152 24.9519C20.8152 25.0964 20.8152 25.2408 20.8152 25.4334C20.8152 25.4816 20.8152 25.5779 20.8152 25.626C20.7688 25.5297 20.7688 25.3853 20.7224 25.289C20.444 24.2297 20.0264 23.4111 19.7479 22.8333C19.6087 22.5444 19.4695 22.3518 19.3767 22.2074C19.2839 22.0629 19.2375 21.9666 19.2375 21.9666C19.2375 21.9185 19.2375 21.8222 19.1911 21.774C19.1447 21.6777 19.0983 21.5333 19.0519 21.3888C19.0055 21.2444 18.9127 21.1481 18.8199 21.0036C18.7735 20.9555 18.7271 20.8592 18.6807 20.811C18.6343 20.7629 18.5879 20.7147 18.4951 20.6184C18.4487 20.5703 18.3559 20.5221 18.3095 20.474C18.2631 20.4258 18.2631 20.4258 18.2167 20.3777C18.1703 20.3777 18.1703 20.3295 18.1239 20.3295C17.9847 20.2332 17.8919 20.1851 17.7527 20.0888C17.5207 19.9925 17.2887 19.9443 17.0567 19.9443C17.1031 20.1369 17.1959 20.3777 17.3815 20.5703C17.4743 20.6666 17.5207 20.811 17.6135 20.9073C17.6135 20.9555 17.6599 20.9555 17.7063 21.0036C17.7063 21.0518 17.7527 21.0518 17.7991 21.0999C17.8455 21.1481 17.8919 21.1962 17.9383 21.2444C17.9847 21.2925 18.0311 21.3407 18.1239 21.3888C18.1703 21.437 18.2167 21.4851 18.2631 21.5333C18.3559 21.6296 18.4951 21.7259 18.5879 21.774C18.6807 21.8703 18.8199 21.9185 18.9127 21.9666C19.0055 22.0148 19.0983 22.0629 19.1911 22.0629C19.1911 22.1111 19.2375 22.1592 19.2839 22.2074C19.3767 22.3518 19.5159 22.5444 19.6551 22.8333C19.7944 23.0741 19.9336 23.363 20.0264 23.6519C20.0264 23.6037 19.98 23.6037 19.98 23.5556C19.9336 23.4593 19.8408 23.3148 19.7479 23.2185C19.7015 23.1704 19.6551 23.1222 19.6087 23.0741C19.5623 23.0259 19.5159 22.9778 19.4695 22.9296C19.3767 22.8333 19.2839 22.7852 19.1447 22.737C18.6807 22.5444 18.3095 22.5926 18.1239 22.8333C18.2167 23.0259 18.3559 23.2185 18.5415 23.4111C18.6343 23.5074 18.7271 23.5556 18.8199 23.6519C18.9127 23.7482 19.0055 23.7963 19.0983 23.8445C19.1447 23.8926 19.1911 23.8926 19.2375 23.9408C19.2839 23.9408 19.3303 23.9889 19.3767 23.9889C19.4695 24.0371 19.5623 24.0371 19.6551 24.0371C19.8408 24.0371 19.98 24.0371 20.1192 23.9408V23.8926C20.2584 24.2778 20.444 24.7593 20.5368 25.2408C20.5832 25.3853 20.5832 25.5297 20.6296 25.626V25.6742C20.4904 25.3853 20.3048 25.0964 20.0728 24.9038C20.0264 24.8556 19.98 24.8075 19.9336 24.8075C19.8872 24.7593 19.8408 24.7593 19.7944 24.7112C19.7015 24.663 19.6087 24.6149 19.5159 24.6149C19.3303 24.5667 19.1447 24.6149 19.0055 24.7112C19.0519 24.8075 19.0983 24.9519 19.1447 25.0482C19.1911 25.1445 19.2375 25.289 19.2839 25.3853C19.3303 25.4334 19.3303 25.4816 19.3767 25.5297C19.4231 25.5779 19.4231 25.626 19.4695 25.6742C19.5623 25.7705 19.6087 25.8668 19.7015 25.9631C20.0264 26.3001 20.3976 26.4446 20.676 26.3483C20.7224 26.5409 20.7224 26.6853 20.7224 26.8779C20.7688 27.215 20.7688 27.6002 20.7688 27.9372C20.7224 27.6483 20.5832 27.4076 20.444 27.1668C20.3048 26.9261 20.0728 26.7816 19.9336 26.7335C19.7479 26.6853 19.5623 26.6853 19.4231 26.7335C19.4695 27.215 19.6087 27.7928 19.8872 28.2261C20.0264 28.4669 20.1656 28.6113 20.3512 28.7558C20.4904 28.8521 20.6296 28.9002 20.7688 28.9002C20.7224 29.3817 20.6296 29.9114 20.5368 30.3929C20.5368 30.104 20.4904 29.8151 20.3976 29.5743C20.2584 29.2854 20.1192 29.0928 19.9336 28.9965C19.7479 28.9002 19.5623 28.8521 19.3767 28.8521C19.2839 29.3817 19.3303 29.9595 19.4695 30.4892C19.6087 30.9707 19.8872 31.3077 20.212 31.404C20.0728 31.8855 19.8872 32.3189 19.6551 32.8004C19.6551 32.7522 19.7015 32.7041 19.7015 32.6078C19.7015 32.5115 19.7015 32.4633 19.7015 32.367C19.7015 32.2226 19.7015 32.03 19.6551 31.8855C19.6087 31.7411 19.6087 31.5966 19.5159 31.5003C19.4695 31.404 19.3767 31.2596 19.3303 31.2114C19.1911 31.067 19.0055 30.9707 18.8199 30.9225C18.5879 31.404 18.4951 32.03 18.5415 32.6078C18.5879 33.1374 18.7735 33.5708 19.0983 33.7152C18.8199 34.1486 18.5415 34.5819 18.2167 34.9671C18.2167 34.9671 18.2167 34.9671 18.2167 34.919C18.2631 34.8227 18.3095 34.7745 18.3095 34.6782C18.3559 34.5819 18.3559 34.5338 18.4023 34.4375C18.4487 34.3412 18.4487 34.293 18.4487 34.1967C18.4487 34.1004 18.4487 34.0523 18.4951 33.956C18.4951 33.8115 18.4951 33.6671 18.4487 33.5226C18.4023 33.3782 18.3559 33.2819 18.3095 33.1856C18.2167 32.993 18.0311 32.8485 17.8455 32.7522C17.5207 33.1856 17.2887 33.7634 17.1959 34.3893C17.1031 34.9671 17.2423 35.4486 17.5207 35.6894C17.3815 35.8338 17.1959 36.0264 17.0103 36.1709C16.7319 36.4116 16.4535 36.6042 16.2215 36.845C16.2679 36.7968 16.3607 36.7005 16.4071 36.6524C16.4535 36.6042 16.4999 36.5079 16.5927 36.4598C16.6391 36.3635 16.6855 36.3153 16.7319 36.219C16.7783 36.1227 16.8247 36.0746 16.8247 35.9783C16.8711 35.882 16.8711 35.8338 16.9175 35.7375C17.0103 35.4005 17.0103 35.1116 16.9175 34.919C16.8711 34.6782 16.7319 34.4856 16.5463 34.3893C16.1287 34.7745 15.711 35.256 15.5254 35.8338C15.2934 36.4116 15.2934 36.9413 15.5718 37.2783C15.5718 37.2783 15.5254 37.2783 15.5254 37.3265C15.015 37.6154 14.5046 37.8561 14.0406 38.0487C13.0662 38.4339 12.2309 38.5784 11.6277 38.6747C11.4885 38.6747 11.3493 38.7228 11.2101 38.7228C11.0709 38.7228 10.9781 38.7228 10.9317 38.7228C10.7925 38.7228 10.6997 38.7228 10.6997 38.7228V39.2043C10.6997 39.2043 10.7925 39.2043 10.9781 39.2043C11.0709 39.2043 11.1637 39.2043 11.3029 39.1562C11.4421 39.1562 11.5813 39.108 11.7205 39.108C12.3237 39.0117 13.2054 38.8191 14.2262 38.3858C14.7366 38.1932 15.247 37.9043 15.7574 37.5672C16.2679 37.2302 16.8247 36.845 17.2887 36.3635C17.3351 36.3153 17.3815 36.2672 17.4279 36.219C17.6135 36.5561 18.1239 36.7005 18.7735 36.4598C18.9591 36.4116 19.0983 36.3153 19.2839 36.219C19.4695 36.1227 19.6087 35.9783 19.7479 35.8338C19.8872 35.6894 20.0264 35.5449 20.1656 35.3523C20.3048 35.2079 20.3976 35.0153 20.4904 34.8227C20.3512 34.6782 20.1656 34.5819 19.9336 34.5819C19.7944 34.5819 19.7015 34.6301 19.5623 34.6301C19.4231 34.6782 19.2839 34.7264 19.0983 34.8227C18.7271 35.0153 18.4023 35.256 18.0775 35.5449C18.4487 35.1116 18.8199 34.6301 19.1447 34.1004C19.7015 34.5819 20.1656 34.5819 20.7224 34.1967C20.8616 34.1004 21.0008 33.956 21.14 33.8597C21.1864 33.8115 21.2792 33.7152 21.3256 33.6189C21.372 33.5226 21.4648 33.4745 21.5112 33.3782C21.604 33.2337 21.6968 33.0411 21.7896 32.8485C21.8824 32.6559 21.9288 32.4633 21.9752 32.2707C21.836 32.1744 21.604 32.1263 21.372 32.2226C21.2792 32.2707 21.14 32.3189 21.0472 32.367C20.908 32.4152 20.8152 32.5115 20.676 32.6559C20.3976 32.8967 20.1656 33.1374 19.98 33.4263C20.0264 33.33 20.0728 33.2337 20.1192 33.1856C20.3048 32.7522 20.4904 32.3189 20.6296 31.8855C20.9544 32.03 21.372 31.9337 21.7896 31.4522C21.8824 31.3077 21.9752 31.1633 22.068 31.0188C22.1608 30.8744 22.2536 30.6818 22.3 30.4892C22.3464 30.3929 22.3464 30.2966 22.3928 30.2003C22.3928 30.104 22.4392 30.0077 22.4392 29.9114C22.4856 29.7188 22.4856 29.5262 22.4856 29.3336C22.3 29.2854 22.1144 29.3336 21.9288 29.4299Z" fill="url(#paint1_linear_20_1473)"/>
<path d="M19.794 22.4965C19.794 22.5447 19.8404 22.641 19.8404 22.6891C19.8404 22.7373 19.8868 22.8336 19.8868 22.8817C19.9332 23.0262 19.9796 23.1706 20.026 23.3151C20.0724 23.4595 20.1188 23.604 20.2116 23.7003C20.3508 23.6521 20.49 23.5558 20.6292 23.4114C20.6756 23.3151 20.722 23.2188 20.7684 23.1225C20.7684 23.0743 20.8148 23.0262 20.8148 22.9299C20.8148 22.8817 20.8148 22.7854 20.8148 22.7373C20.8148 22.5928 20.8148 22.4484 20.7684 22.3039C20.722 22.1595 20.6756 22.015 20.6292 21.8706C20.5364 21.5817 20.3508 21.2928 20.1652 21.052C19.8868 21.1483 19.7012 21.5817 19.7476 22.1113C19.7476 22.2076 19.7476 22.3521 19.794 22.4965Z" fill="url(#paint2_linear_20_1473)"/>
<path d="M15.8504 41.5637C9.35418 41.5637 3.69323 36.0265 3.69323 29.141C3.69323 26.3483 4.89966 23.7964 6.3845 21.7259C6.61651 21.3407 13.4839 12.9145 15.3863 10.5551C15.8968 9.92917 15.4791 9.54397 15.4791 9.54397L13.6695 7.28092L13.5303 7.13647C13.5303 7.13647 13.4839 7.18462 13.3911 7.28092C12.2311 8.67727 5.31727 17.2961 3.92523 19.3666C1.65157 22.5926 0.213135 25.915 0.213135 29.0447C0.213135 36.7969 6.05969 42.8638 13.5303 42.8638C16.732 42.8638 19.6553 41.7082 21.9753 39.7822C20.1657 40.8896 18.0776 41.5637 15.8504 41.5637Z" fill="#0E98D0"/>
<path d="M28.0538 28.8038C28.193 28.6112 28.3322 28.3705 28.4714 28.1297C28.5178 27.9853 28.5642 27.889 28.6106 27.7445C28.657 27.6001 28.7035 27.4556 28.7035 27.3112C28.7963 27.0223 28.7963 26.7334 28.8427 26.4445C28.8427 26.1556 28.8427 25.8667 28.7963 25.5778C28.5178 25.5296 28.193 25.5778 27.9146 25.8185C27.7754 25.9148 27.6362 26.0593 27.497 26.2037C27.3578 26.3482 27.2186 26.5408 27.0794 26.7815C26.7546 27.3112 26.5226 27.9371 26.337 28.5631C26.3834 28.3705 26.3834 28.1779 26.3834 27.9371C26.3834 27.9853 26.3834 28.0334 26.337 28.0816C26.3834 27.8408 26.3834 27.5519 26.4298 27.3112C26.4762 26.7815 26.4762 26.3 26.4762 25.7704C27.033 25.8667 27.6826 25.4815 28.0538 24.6148C28.1466 24.374 28.193 24.1333 28.2394 23.8925C28.2858 23.6518 28.2858 23.3629 28.2858 23.074C28.2858 22.9295 28.2858 22.7851 28.2394 22.6888C28.2394 22.5443 28.193 22.3999 28.193 22.3036C28.1466 22.0147 28.0538 21.7739 27.961 21.5332C27.6826 21.5332 27.4042 21.6776 27.1722 21.9184C26.9402 22.1591 26.7546 22.5443 26.6154 22.9777C26.4298 23.5073 26.3834 24.1333 26.3834 24.7111C26.3834 24.6148 26.3834 24.4703 26.337 24.374C26.2442 23.5555 26.0586 22.7369 25.8266 21.9665C26.0586 21.9184 26.2906 21.8221 26.5226 21.5813C26.7546 21.3406 26.8938 21.0035 26.9402 20.522C27.0794 19.6072 26.7546 18.4997 26.1514 17.6812C25.873 17.7293 25.6874 17.9219 25.5018 18.2108C25.3626 18.4997 25.2698 18.8368 25.2698 19.2701C25.2698 19.7035 25.3162 20.1368 25.3626 20.5702C25.1306 20.0405 24.8985 19.5109 24.6665 19.0294C24.5273 18.7886 24.3881 18.5479 24.2489 18.3071C24.6665 18.1145 24.8985 17.5849 24.8057 16.8145C24.6665 15.9478 24.1561 14.9848 23.4137 14.3588C23.1817 14.4551 23.0425 14.6959 22.9497 14.9848C22.9033 15.1292 22.9033 15.2737 22.9033 15.4663C22.9033 15.5626 22.9033 15.6589 22.9497 15.7552C22.9497 15.8515 22.9961 15.9478 22.9961 16.0441C23.0425 16.2367 23.0889 16.4774 23.1817 16.67C23.1817 16.7182 23.2281 16.7663 23.2281 16.8145C22.7177 16.1404 22.2073 15.6107 21.7433 15.1774C21.8361 15.0811 21.9289 14.9366 21.9753 14.744C22.0217 14.5996 22.0217 14.4551 21.9753 14.3107C21.9753 14.2144 21.9289 14.1181 21.9289 14.0699C21.8825 13.9736 21.8825 13.8773 21.8361 13.781C21.7433 13.5884 21.6505 13.3958 21.5113 13.2032C21.3721 13.0106 21.2329 12.818 21.0936 12.6736C20.7688 12.3365 20.3512 12.0476 19.98 11.8069C19.6088 12.0958 19.6088 12.7217 19.98 13.444C20.0728 13.6366 20.1656 13.8292 20.3048 13.9736L20.3512 14.0218C20.2584 13.9255 20.1656 13.8773 20.0728 13.8292C19.8872 13.6847 19.7944 13.6366 19.7944 13.6366C19.748 13.5403 19.7016 13.444 19.6552 13.3958C19.5624 13.2514 19.4232 13.1069 19.284 12.9625C19.1448 12.818 18.9592 12.7217 18.82 12.5773C18.7272 12.5291 18.6344 12.481 18.5416 12.3847C18.4488 12.3365 18.356 12.2884 18.2168 12.2402C18.124 12.1921 17.9848 12.1439 17.892 12.0958C17.8456 12.0958 17.7992 12.0476 17.7528 12.0476C17.7064 12.0476 17.66 11.9995 17.6136 11.9995C17.3815 11.9995 17.1495 11.9513 16.9639 11.9513C16.5927 11.9513 16.2215 11.9995 15.9895 12.0958C16.1751 12.3365 16.4071 12.5773 16.7319 12.7699C16.8711 12.8662 17.0567 12.9625 17.2423 13.0588C17.2887 13.0588 17.3351 13.1069 17.3815 13.1069C17.4279 13.1069 17.4743 13.1551 17.5208 13.2032C17.6136 13.2514 17.7064 13.2995 17.7992 13.3477C17.892 13.3958 17.9848 13.444 18.0776 13.444C18.1704 13.4921 18.2632 13.5403 18.356 13.5403C18.5416 13.5884 18.7272 13.6366 18.9128 13.6847C19.0984 13.7329 19.284 13.7329 19.4232 13.781C19.5624 13.781 19.7016 13.781 19.8408 13.781C19.8872 13.8292 19.9336 13.8773 20.0264 13.9255C20.212 14.0699 20.444 14.2625 20.7688 14.5033C20.908 14.6477 21.0008 14.7922 21.14 14.8885C21.2329 14.9848 21.2793 15.0329 21.3721 15.0811C21.3257 15.0811 21.3257 15.0329 21.2793 15.0329C21.1865 14.9848 21.14 14.9366 21.0472 14.8885C20.9544 14.8403 20.8616 14.8403 20.7688 14.7922C20.5832 14.744 20.444 14.6959 20.2584 14.6959C19.5624 14.6477 19.0984 14.9366 18.9592 15.37C19.1912 15.5626 19.4696 15.7552 19.7944 15.8996C19.9336 15.9959 20.1192 16.0441 20.2584 16.0922C20.3976 16.1404 20.5832 16.1885 20.7224 16.1885C20.8152 16.1885 20.908 16.1885 20.9544 16.1885C21.0472 16.1885 21.0936 16.1885 21.1864 16.1885C21.3257 16.1885 21.4649 16.1404 21.6041 16.1404C21.8361 16.0441 22.0217 15.9478 22.1609 15.7552C22.5321 16.1404 22.9033 16.5737 23.2745 17.1034C23.3673 17.2478 23.5065 17.3923 23.5993 17.5849C23.6457 17.6812 23.6921 17.7293 23.7385 17.8256C23.7385 17.8738 23.7849 17.8738 23.7849 17.9219C23.4601 17.4886 22.9961 17.1515 22.5321 17.0071C22.4393 16.9589 22.3465 16.9589 22.3001 16.9589C22.2073 16.9589 22.1145 16.9589 22.0681 16.9108C21.9289 16.9108 21.7897 16.9108 21.6505 16.9589C21.3721 17.0071 21.1865 17.1515 21.0472 17.3923C21.14 17.5367 21.2793 17.6812 21.3721 17.7775C21.5113 17.9219 21.6041 18.0182 21.7433 18.1145C21.7897 18.1627 21.8825 18.2108 21.9753 18.259C22.0681 18.3071 22.1145 18.3553 22.2073 18.4034C22.3465 18.4997 22.5321 18.596 22.6713 18.6442C23.2745 18.9331 23.8777 18.8849 24.2025 18.596C24.2953 18.7886 24.4345 18.9812 24.5273 19.1738C24.8521 19.7998 25.1306 20.4739 25.3626 21.1961C25.1306 20.6665 24.7593 20.2331 24.2953 19.9442C23.9705 19.7516 23.6457 19.6553 23.3673 19.6553C23.0889 19.6553 22.8569 19.7516 22.6713 19.9442C22.9497 20.5702 23.4137 21.2443 24.0169 21.6776C24.2953 21.9184 24.6201 22.0147 24.8985 22.111C25.177 22.1591 25.409 22.1591 25.641 22.0147C25.873 22.7851 26.0122 23.5555 26.105 24.374C26.105 24.3259 26.105 24.3259 26.0586 24.2777C25.9194 23.8444 25.6874 23.4592 25.409 23.1703C25.1306 22.8814 24.8057 22.6888 24.5273 22.6406C24.2489 22.5925 23.9705 22.6406 23.7385 22.7369C23.8777 23.4592 24.2025 24.2296 24.7129 24.8074C25.177 25.3852 25.6874 25.6259 26.1978 25.5778C26.1978 26.1556 26.1978 26.7815 26.1514 27.3593C26.1514 27.4075 26.1514 27.4556 26.1514 27.5519V27.5038C26.105 27.4075 26.105 27.263 26.0586 27.1667C25.9658 26.9741 25.9194 26.7334 25.7802 26.5408C25.6874 26.3482 25.5482 26.2037 25.409 26.0593C25.2698 25.9148 25.1306 25.8185 24.9914 25.7704C24.7129 25.6259 24.4345 25.6259 24.1561 25.6741C24.1097 26.4445 24.2953 27.263 24.6665 28.0334C24.9914 28.6594 25.409 29.0927 25.873 29.189C25.7802 29.6705 25.641 30.2002 25.4554 30.6817C25.4554 30.6335 25.4554 30.6335 25.4554 30.5854C25.4554 30.4891 25.409 30.3446 25.409 30.2483C25.3626 30.152 25.3626 30.0076 25.3162 29.9113C25.2234 29.7187 25.177 29.5261 25.0378 29.3335C24.945 29.189 24.8057 29.0446 24.7129 28.9483C24.4809 28.7557 24.2025 28.6594 23.9241 28.6594C23.7385 29.4298 23.6921 30.2965 23.8777 31.1632C24.0169 31.8373 24.3417 32.3188 24.7129 32.5595C24.6665 32.6558 24.6201 32.7521 24.5737 32.8966C24.4345 33.1373 24.3417 33.3781 24.2025 33.5707C24.2025 33.5225 24.2025 33.4744 24.2025 33.4262C24.2025 33.2818 24.2025 33.1855 24.2025 33.0892C24.1561 32.6077 24.0169 32.2225 23.8313 31.9817C23.6457 31.6928 23.3673 31.5484 23.0889 31.5002C22.7177 32.2225 22.4393 33.0892 22.4393 34.004C22.4393 34.63 22.5785 35.2078 22.8569 35.5448C22.4393 36.0263 22.0217 36.5078 21.5577 36.893C21.2329 37.1819 20.908 37.4708 20.5832 37.7116C19.052 38.6746 17.2887 39.2524 15.4327 39.3005C11.3958 39.3487 7.82289 36.8449 5.82764 33.0892C7.73009 37.7116 11.4886 40.8413 15.7575 40.7932C18.588 40.745 21.14 39.3487 23.0889 37.0375C23.2745 37.2301 23.5529 37.3264 23.8777 37.3745C24.2953 37.4227 24.7593 37.3264 25.2698 37.0375C25.5482 36.893 25.7802 36.7486 26.0122 36.556C26.2442 36.3634 26.4762 36.1226 26.7082 35.8819C26.9402 35.6411 27.1258 35.3522 27.265 35.1115C27.4506 34.8226 27.5434 34.5337 27.6826 34.2448C27.4042 34.0522 27.0794 34.004 26.7082 34.0522C26.2906 34.1003 25.873 34.2929 25.409 34.5818C24.9449 34.8707 24.4809 35.2559 24.1097 35.6411C24.5273 35.0152 24.8985 34.3411 25.177 33.6188C25.6874 33.9559 26.4762 33.9077 27.3114 33.1855C27.5434 32.9929 27.729 32.8003 27.9146 32.5595C28.1002 32.3188 28.2394 32.078 28.3786 31.7891C28.5178 31.5002 28.6106 31.2595 28.7035 30.9706C28.7963 30.6817 28.8427 30.3928 28.8891 30.1039C28.6106 29.9594 28.2858 30.0076 27.9146 30.152C27.729 30.2002 27.5434 30.3446 27.4042 30.4409C27.2186 30.5854 27.033 30.7298 26.8474 30.9224C26.2906 31.5002 25.7802 32.2225 25.409 32.9929C25.7802 31.9817 26.105 30.9224 26.2906 29.815C26.7546 29.8631 27.4506 29.6224 28.0538 28.8038ZM21.6505 15.2737L21.6969 15.3218C21.6505 15.3218 21.6505 15.3218 21.6505 15.2737C21.6041 15.2737 21.6041 15.2737 21.6505 15.2737Z" fill="url(#paint3_linear_20_1473)"/>
<path d="M16.7782 27.2632C16.639 26.8299 16.3142 25.4817 13.9477 22.1593L11.6741 18.9814L9.4004 22.1593C7.08034 25.4817 6.70913 26.8299 6.56993 27.2632C5.96671 29.5263 6.56993 31.1152 7.17314 32.0782C8.14757 33.5709 9.81802 34.4857 11.6277 34.4857C13.4373 34.4857 15.1078 33.5709 16.0822 32.0782C16.7782 31.1152 17.3814 29.5263 16.7782 27.2632Z" fill="#0E98D0"/>
<defs>
<linearGradient id="paint0_linear_20_1473" x1="18.7606" y1="12.6822" x2="17.1235" y2="38.32" gradientUnits="userSpaceOnUse">
<stop stop-color="#F7A30A"/>
<stop offset="0.0705882" stop-color="#F7A30A"/>
<stop offset="0.5412" stop-color="#0DB02B"/>
<stop offset="1" stop-color="#006D45"/>
</linearGradient>
<linearGradient id="paint1_linear_20_1473" x1="17.9258" y1="13.7448" x2="16.3632" y2="38.2124" gradientUnits="userSpaceOnUse">
<stop stop-color="#F7A30A"/>
<stop offset="0.0705882" stop-color="#F7A30A"/>
<stop offset="0.5412" stop-color="#0DB02B"/>
<stop offset="1" stop-color="#006D45"/>
</linearGradient>
<linearGradient id="paint2_linear_20_1473" x1="20.7217" y1="14.1579" x2="19.1474" y2="38.8145" gradientUnits="userSpaceOnUse">
<stop stop-color="#F7A30A"/>
<stop offset="0.0705882" stop-color="#F7A30A"/>
<stop offset="0.5412" stop-color="#0DB02B"/>
<stop offset="1" stop-color="#006D45"/>
</linearGradient>
<linearGradient id="paint3_linear_20_1473" x1="18.2835" y1="13.7454" x2="16.6853" y2="38.7681" gradientUnits="userSpaceOnUse">
<stop stop-color="#F7A30A"/>
<stop offset="0.0705882" stop-color="#F7A30A"/>
<stop offset="0.5412" stop-color="#0DB02B"/>
<stop offset="1" stop-color="#006D45"/>
</linearGradient>
</defs>
</svg>
