<svg width="19" height="20" viewBox="0 0 19 20" fill="none" xmlns="http://www.w3.org/2000/svg">
<path d="M14.0536 13.2114C14.0014 13.2639 13.9313 13.2932 13.8584 13.2932C13.7855 13.2932 13.7154 13.2639 13.6632 13.2114L13.2579 12.8846C13.2319 12.8584 13.2111 12.8271 13.197 12.7925C13.1829 12.7579 13.1756 12.7208 13.1756 12.6832C13.1756 12.6457 13.1829 12.6085 13.197 12.574C13.2111 12.5394 13.2319 12.5081 13.2579 12.4819L15.3135 10.2019L13.6853 8.68199L11.6297 10.9619C11.5774 11.0144 11.5074 11.0437 11.4344 11.0437C11.3615 11.0437 11.2915 11.0144 11.2392 10.9619L10.834 10.5743C10.7836 10.5217 10.7553 10.4507 10.7553 10.3767C10.7553 10.3028 10.7836 10.2318 10.834 10.1791L12.8895 7.89921L11.2613 6.37926L9.20571 8.65919C9.15345 8.71164 9.0834 8.741 9.01047 8.741C8.93754 8.741 8.86749 8.71164 8.81523 8.65919L8.39527 8.2184C8.3692 8.1922 8.34849 8.16089 8.33434 8.1263C8.3202 8.09171 8.31291 8.05455 8.31291 8.01701C8.31291 7.97947 8.3202 7.94231 8.33434 7.90772C8.34849 7.87313 8.3692 7.84181 8.39527 7.81561L10.4508 5.53569L8.82259 4.01574L6.76701 6.29567C6.74162 6.32255 6.71125 6.34392 6.67772 6.35851C6.64419 6.3731 6.60816 6.38062 6.57177 6.38062C6.53538 6.38062 6.49935 6.3731 6.46582 6.35851C6.43229 6.34392 6.40193 6.32255 6.37653 6.29567L5.97131 5.90808C5.92045 5.85417 5.89199 5.78191 5.89199 5.70669C5.89199 5.63146 5.92045 5.55921 5.97131 5.50529L8.02689 3.22537L6.39863 1.70542C6.29174 1.60409 6.16653 1.52547 6.03017 1.47406C5.89381 1.42265 5.74897 1.39946 5.60392 1.40581C5.45887 1.41216 5.31645 1.44793 5.18481 1.51108C5.05316 1.57422 4.93487 1.6635 4.83668 1.77382L0.290832 6.80485C0.19281 6.91447 0.116745 7.04299 0.067007 7.18302C0.0172686 7.32305 -0.00516395 7.47184 0.000997319 7.62083C0.00715859 7.76983 0.0417923 7.91611 0.10291 8.05126C0.164027 8.18641 0.250425 8.30778 0.357141 8.40839L11.7623 19.2C11.8686 19.3011 11.9932 19.3796 12.1289 19.4309C12.2647 19.4822 12.4089 19.5053 12.5534 19.499C12.6978 19.4926 12.8396 19.4569 12.9706 19.3939C13.1017 19.3308 13.2193 19.2417 13.3169 19.1316L17.8038 14.093C17.902 13.9827 17.9782 13.8536 18.0281 13.7129C18.0779 13.5723 18.1004 13.4229 18.0942 13.2733C18.0881 13.1236 18.0534 12.9767 17.9922 12.8409C17.931 12.7052 17.8444 12.5831 17.7375 12.4819L16.1092 10.9619L14.0536 13.2114Z" fill="#3E889F"/>
</svg>
