<svg width="19" height="20" viewBox="0 0 19 20" fill="none" xmlns="http://www.w3.org/2000/svg">
<path d="M17.9567 16.3623L14.6089 13.0152C14.4579 12.8641 14.2531 12.7802 14.0382 12.7802H13.4909C14.4176 11.595 14.9682 10.1046 14.9682 8.48292C14.9682 4.62549 11.842 1.5 7.98427 1.5C4.1265 1.5 1 4.62549 1 8.48292C1 12.3404 4.12617 15.4658 7.98427 15.4658C9.60594 15.4658 11.097 14.9152 12.2822 13.9885V14.5358C12.2822 14.7507 12.3661 14.9555 12.5172 15.1066L15.865 18.4537C16.1806 18.7693 16.6909 18.7693 17.0032 18.4537L17.9534 17.5035C18.269 17.1879 18.269 16.6779 17.9567 16.3623ZM7.98427 13.317C5.31371 13.317 3.14947 11.1568 3.14947 8.48292C3.14947 5.81271 5.31002 3.6488 7.98427 3.6488C10.6548 3.6488 12.8191 5.80901 12.8191 8.48292C12.8191 11.1531 10.6585 13.317 7.98427 13.317ZM7.98494 5.2604C6.61575 5.2604 5.50576 6.37005 5.50576 7.73924C5.50576 8.84587 7.12609 10.8634 7.74689 11.5957C7.77601 11.6305 7.81242 11.6585 7.85355 11.6778C7.89468 11.697 7.93953 11.707 7.98494 11.707C8.03034 11.707 8.0752 11.697 8.11633 11.6778C8.15746 11.6585 8.19387 11.6305 8.22299 11.5957C8.84379 10.8634 10.4641 8.84621 10.4641 7.73924C10.4641 6.37005 9.35413 5.2604 7.98494 5.2604ZM7.98494 8.4836C7.53973 8.4836 7.17914 8.12266 7.17914 7.6778C7.17914 7.23259 7.54007 6.872 7.98494 6.872C8.42981 6.872 8.79074 7.23259 8.79074 7.6778C8.79074 8.12266 8.42981 8.4836 7.98494 8.4836Z" fill="#3E889F"/>
</svg>
